{
    "_links": {
        "self": {
            "href": "http:\/\/findit-dev.test\/block\/4?_format=hal_json"
        },
        "type": {
            "href": "http:\/\/drupal.org\/rest\/type\/block_content\/link"
        },
        "http:\/\/drupal.org\/rest\/relation\/block_content\/link\/field_image": [
            {
                "href": ""
            }
        ]
    },
    "id": [
        {
            "value": 4
        }
    ],
    "uuid": [
        {
            "value": "c5ff39ab-64a7-4857-8f31-84e0f6f159e4"
        }
    ],
    "revision_id": [
        {
            "value": 4
        }
    ],
    "langcode": [
        {
            "value": "en",
            "lang": "en"
        }
    ],
    "type": [
        {
            "target_id": "link"
        }
    ],
    "revision_created": [
        {
            "value": "2019-09-05T16:13:47+00:00",
            "format": "Y-m-d\\TH:i:sP"
        }
    ],
    "status": [
        {
            "value": true,
            "lang": "en"
        }
    ],
    "info": [
        {
            "value": "Kids",
            "lang": "en"
        }
    ],
    "changed": [
        {
            "value": "2019-09-05T16:13:47+00:00",
            "lang": "en",
            "format": "Y-m-d\\TH:i:sP"
        }
    ],
    "reusable": [
        {
            "value": true
        }
    ],
    "default_langcode": [
        {
            "value": true,
            "lang": "en"
        }
    ],
    "revision_translation_affected": [
        {
            "value": true,
            "lang": "en"
        }
    ],
    "metatag": [
        {
            "value": {
                "title": "| Find It Development Site",
                "canonical_url": "http:\/\/findit-dev.test\/home"
            }
        }
    ],
    "_embedded": {
        "http:\/\/drupal.org\/rest\/relation\/block_content\/link\/field_image": [
            {
                "_links": {
                    "self": {
                        "href": ""
                    },
                    "type": {
                        "href": "http:\/\/drupal.org\/rest\/type\/file\/file"
                    }
                },
                "uuid": [
                    {
                        "value": "b8055c0c-b7db-44a8-bd9e-b6f9e8b039a4"
                    }
                ],
                "alt": "Three smiling young girls.",
                "title": "",
                "width": "152",
                "height": "101"
            }
        ]
    },
    "field_link_blocks_link": [
        {
            "uri": "internal:\/search?ages=5-12",
            "title": "",
            "options": []
        }
    ],
    "field_subtitle": [
        {
            "value": "5\u201312 years old"
        }
    ]
}