{
    "_links": {
        "self": {
            "href": ""
        },
        "type": {
            "href": "http:\/\/drupal.org\/rest\/type\/paragraph\/slide"
        },
        "http:\/\/drupal.org\/rest\/relation\/paragraph\/slide\/field_image": [
            {
                "href": "",
                "lang": "en"
            }
        ]
    },
    "id": [
        {
            "value": 5
        }
    ],
    "uuid": [
        {
            "value": "340ed480-1e7e-4295-a68b-d956e77be935"
        }
    ],
    "revision_id": [
        {
            "value": 7
        }
    ],
    "langcode": [
        {
            "value": "en",
            "lang": "en"
        }
    ],
    "type": [
        {
            "target_id": "slide"
        }
    ],
    "status": [
        {
            "value": true,
            "lang": "en"
        }
    ],
    "created": [
        {
            "value": "2019-09-15T04:20:35+00:00",
            "lang": "en",
            "format": "Y-m-d\\TH:i:sP"
        }
    ],
    "parent_id": [
        {
            "value": "3"
        }
    ],
    "parent_type": [
        {
            "value": "node"
        }
    ],
    "parent_field_name": [
        {
            "value": "field_body_paragraph"
        }
    ],
    "behavior_settings": [
        {
            "value": []
        }
    ],
    "default_langcode": [
        {
            "value": true,
            "lang": "en"
        }
    ],
    "revision_translation_affected": [
        {
            "value": true,
            "lang": "en"
        }
    ],
    "_embedded": {
        "http:\/\/drupal.org\/rest\/relation\/paragraph\/slide\/field_image": [
            {
                "_links": {
                    "self": {
                        "href": ""
                    },
                    "type": {
                        "href": "http:\/\/drupal.org\/rest\/type\/file\/file"
                    }
                },
                "uuid": [
                    {
                        "value": "d7c294e3-71c6-4d5b-8f51-ffa55f411276"
                    }
                ],
                "lang": "en",
                "alt": "Two girls wearing white lab coats and safety glasses with more science kids in the background.",
                "title": "",
                "width": "1440",
                "height": "437"
            }
        ]
    },
    "field_text": [
        {
            "value": "<h3 class=\"subtitle\">Opportunities for those who live, work, and play in Cambridge.<\/h3>\r\n",
            "format": "full_html",
            "processed": "<h3 class=\"subtitle\">Opportunities for those who live, work, and play in Cambridge.<\/h3>\n",
            "lang": "en"
        }
    ]
}
