{
    "_links": {
        "self": {
            "href": ""
        },
        "type": {
            "href": "http:\/\/drupal.org\/rest\/type\/file\/file"
        },
        "http:\/\/drupal.org\/rest\/relation\/file\/file\/uid": [
            {
                "href": "http:\/\/findit-dev.test\/user\/1?_format=hal_json"
            }
        ]
    },
    "uuid": [
        {
            "value": "b8055c0c-b7db-44a8-bd9e-b6f9e8b039a4"
        }
    ],
    "langcode": [
        {
            "value": "en"
        }
    ],
    "_embedded": {
        "http:\/\/drupal.org\/rest\/relation\/file\/file\/uid": [
            {
                "_links": {
                    "self": {
                        "href": "http:\/\/findit-dev.test\/user\/1?_format=hal_json"
                    },
                    "type": {
                        "href": "http:\/\/drupal.org\/rest\/type\/user\/user"
                    }
                },
                "uuid": [
                    {
                        "value": "f0e1258c-eb1c-421e-b7b3-d3d714a59955"
                    }
                ]
            }
        ]
    },
    "filename": [
        {
            "value": "smiling-young-girls.jpg"
        }
    ],
    "uri": [
        {
            "value": "public:\/\/link-block\/2019-09\/smiling-young-girls.jpg",
            "url": "\/sites\/default\/files\/link-block\/2019-09\/smiling-young-girls.jpg"
        }
    ],
    "filemime": [
        {
            "value": "image\/jpeg"
        }
    ],
    "filesize": [
        {
            "value": 30939
        }
    ],
    "status": [
        {
            "value": true
        }
    ],
    "created": [
        {
            "value": "2019-09-05T16:13:04+00:00",
            "format": "Y-m-d\\TH:i:sP"
        }
    ],
    "changed": [
        {
            "value": "2019-09-05T16:20:34+00:00",
            "format": "Y-m-d\\TH:i:sP"
        }
    ],
    "data": [
        {
            "value": "\/9j\/4AAQSkZJRgABAgEASABIAAD\/2wBDAAEBAQEBAQEBAQEBAQEBAQEBAQEBAQEBAQEBAQEBAQEBAQEBAQEBAQEBAQEBAQEBAQEBAQEBAQEBAQEBAQEBAQH\/2wBDAQEBAQEBAQEBAQEBAQEBAQEBAQEBAQEBAQEBAQEBAQEBAQEBAQEBAQEBAQEBAQEBAQEBAQEBAQEBAQEBAQEBAQH\/wAARCABlAJgDAREAAhEBAxEB\/8QAHwAAAQUBAQEBAQEAAAAAAAAAAAECAwQFBgcICQoL\/8QAtRAAAgEDAwIEAwUFBAQAAAF9AQIDAAQRBRIhMUEGE1FhByJxFDKBkaEII0KxwRVS0fAkM2JyggkKFhcYGRolJicoKSo0NTY3ODk6Q0RFRkdISUpTVFVWV1hZWmNkZWZnaGlqc3R1dnd4eXqDhIWGh4iJipKTlJWWl5iZmqKjpKWmp6ipqrKztLW2t7i5usLDxMXGx8jJytLT1NXW19jZ2uHi4+Tl5ufo6erx8vP09fb3+Pn6\/8QAHwEAAwEBAQEBAQEBAQAAAAAAAAECAwQFBgcICQoL\/8QAtREAAgECBAQDBAcFBAQAAQJ3AAECAxEEBSExBhJBUQdhcRMiMoEIFEKRobHBCSMzUvAVYnLRChYkNOEl8RcYGRomJygpKjU2Nzg5OkNERUZHSElKU1RVVldYWVpjZGVmZ2hpanN0dXZ3eHl6goOEhYaHiImKkpOUlZaXmJmaoqOkpaanqKmqsrO0tba3uLm6wsPExcbHyMnK0tPU1dbX2Nna4uPk5ebn6Onq8vP09fb3+Pn6\/9oADAMBAAIRAxEAPwD+2X9o39onQfgL4YOrXqfablrrTLW4cPEselRatexafbXUvnFIZZ5J5kFvavJGpB82Vthijn9nKsqePk51Jezow0u9HUldLlTurRu0pS\/7dTTu4+XmWZQwMIq3NUnKMV2gpOyk+77L5von2fwe01Z\/D0XjK+v9a1TxD4njmOqX2ratqF3G0FrqmpCxgstKluW0jR4LeGXYINHsbGGQ\/vJEdzurmzNRp4qpQpwhTpUnDljCKWrpQu3J3nK7v8Umb4G8qKqzlOdSpzc8pybek5pJR0hFJbKEUrW3Nv4lfErRfhposOp6nHJe3l\/dwafpOkwT21tPf3c8iRjM93JFb21pb7xLeXUrEQwg+XHPO0UEnHTpVKrtTi5NNLTvJ2S\/V9opvodl0mk2o3u7yvypRTbbaTfkrJttpdT8o\/2hv28fiJ4UsfF9toer6Do3iDRdLTU9P0jSbdJIFlkkFzZadea5qckrSStp5WXUblNPtIh5o+z20YQSP10sN7OrUp4hU3VjRnVjS1kpu9owi7xcp8vvu0dNdJJa6ckKsKc6bqOm68Kc6vux5dLzdveSje8E5TV7XfLexJ8Ef+Cg2jeK\/hrpPi3x74\/tvFVxqunTy2KaHbWuk28Xm6XBNc6V4000rKsWqaPq7XNjMNOuHE1ud728jRRxPph8DUnTlWnUoRg5c8Iq8Z8rbUoNSUnGUGnH7V172idyMZyUa3sKVHEOULxqSlZw7xnGStzQqRakm4rXRNvb89rf4h\/s4fGv9oWX4JX3gfRfh343+LaX2n2PxCjtrG5gfSJJmEd7pmp2cy6fq1tBcXi2sVsmpA2txcW0c9vbTT2nm4Y7KMBrP2M\/b1fcU9HHX3\/dSk4e+9nG19k7p26KVbFVMLLmcPYUfija076QS1Sl7kWrqVopJXVt\/wB8\/gF+y38PfgnEYfD2pX97qUGjWGiz3bLpthqE0FrDbxPfXNzpdlZXEtzqEtuZZZY3SFSWghG2MYz9o6dGFCFKEKUdm4RvOS1bdly36Wabsk2cPs4yqSm5zc3FL4mrR7K1ml16avSwn7X3j3xj8EP2dPGvi\/4WGafxzZT6OvhuLVZb3XVu7651m0kvLOU6jcXEipeabHf2qSNPFDaPMkweJYwRhKq4RnWcIVHTheNNq0ZvmiuVqFm9G7W7JGeIhNUXChKcJylFKd+dx1u3epzpK176dbI\/En9mfUfjJ4W+LVr418WiCCw+IHjWb4teL\/iHrzW7anqzaTHd303hzRdSuYoL+Tw9bODYiGff+5s9LiEUjSm4SMLUxMKkoSpxWHxs5161dv3lTUU\/YwurukrKOvMkoxUeW7OWnhU3TlzOM6Si4q38WrrzVH1Um5PRd9bvb6I17w5D+1L8brD4rfFDXIZvCnhC9dPDHgeaaH+yr6yWRpNIe9t7wHEcpaPU02IyT3Y8yVtq+XH6mEwka9aOIc70KKkoYayaqdY1qjaTT0UrLmi9E3ZWXTiowpwdOdOLr1eWTrPmvBK37pK\/LyrVJtXTbvvrg+Nf2kfgR8M9K07WfG\/w9it7XU9d1bwzAnhzRINektr7T\/EN14cgguBbW9u1rJdahbeW8c8KRwmaHbJMvmOnfVzPBUJU41KNSKqyqQUoUFOEJU5yhyycYpR5mtFu7qya1UU8nxNWNSdF0ZOnGMnBzUHKMoe0vBS3UYr3pLS19Voj5b8Y\/wDBUz\/gnR4S1rUtA8aWfi\/wrqemSWiXwuvhV4ja2T7RGjhob7SLS5gniQSIsssMjJE80AkKm5t\/M7sJLLsdRjWpVKTjUukqmHqpp+7pJeyl\/MtLu6e+55eLo5ngasqVTLsXJxSanQq4SpBqV1ePLiVNe9Fx95Jtrba\/1L8EtY\/ZL\/bF8BSfEj4T2P8Awlvg4ale6ANT1TR9W02Oa8sjEbu3hsteghllhi81Edxb\/Zy6siFjGwBWyvAuzlh8NWjKTSkqbWqSv8dOL6rVLXWzMaOOr1HOEvrNGdKS56dZ8sk3G8XaNScWmno7uxm+MP8AgnR+yF4wuZL\/AF34G\/DW+v2n+1HUrjwH4Rl1QXEZCxTrqY0VNRWaMYCSJdrIuBtdSi1yPJcrlDkWH9mpXTjSlKkveVtVCUdNbtdVp6dLxle13NS5YtLmjB6JNpfDe3zu+5ifAP8AYX+Af7KXxoHx2+DHgHw7p3jVbTWbG5\/tZvEOo6bcwat5D3LfYJtfksra5W4ghmhu7ezSaJ48KdrOGujkmFoWVKdWEY0nShHmTUIu3wNrmTXLa7b0lJLdnLVx0qkoS9lSvTmppuDtJqMo2nBSSa966WnvKL0tp+kB\/ah8dvOqax8PvDOp265806d4l1CxlfjqkN3ot4inIwA13kcNuwRXRDKKcFalVlF2XvSld3enw8kVv\/eWnUc8zrTt7SFKa2slKCatru6hzuu\/tQ+FbGbSRrnwd8fAatqI043Hh240PXbexdrSe7+13jS6jp08VkqQMjTLA7iV40CEuBTnRxeHdOMZVK7qScV7OnGXJZXc6n7xWjpa\/VtK3fCpi8Pbmq0eSKaXu1eZtvZRUqcXtdtX0s3e12ebeF\/i54U1D9oKOPwR8TvEekSeIdEvmtfDVrqE97pBuNMXTBc3x02O6vtHvrmOMXVk0KKIree0u7i6hkeNHrpboV4PD16dLEVo0pTceaL92NTkcqc7XUotr+G72vtuvLp10sfGthcViKFOo\/YxinN0\/aqlzJyp80qc9FKPvR5bxT5ZKKPuv4LftH+Bfi\/d3+h6NrFvfaxplxq1qbiCCW0stRl0bUrmw1G0to7ordR6tpKxQNq9lNBCFeZ5bMSQRXC2vzOPwH1ZRr0pc2HnN00205QqxT56bdlfllGcU9WuRqWtnL6vLc3o4+dTDpv29FOUrxcFOHNo1GVpqSjKm5pxjG9ROGjaj+eP7bWoX3iH4OeOdauFiml1HU9NvIgqPOqW48Q2Mdojxsykpb26xID5gSNIg5yo5+lwtsLSUNvZRhGVtLrmp82n80m22+rfQ8nMEsSotrm9pWg9W7XunFtX2hZJ9lrraz+vr79pDw38EPhd4Qk1y2W7ubm3ugsRvGtzBCb66MVzOqW95J5TsxRNwhVmjfDhQWHgY\/DQli69SdWNNe5vZuTUIqXLqk7W1d3v1PocE5ulCnGnKUkpttXcYrmla+nXoj8qP2nf2z\/FHxi1DSz8JrJNW1vSzcadbR2uuHR9DtIru7spbgassP8AbKG5hls7cBtS8uJ42uEtzEty8dZrMsHltKUaanOo3duUIuW2lk2lG+15Rsk5Pqejh8oxOOqqdScadJR05ZS9dVFJye+iaem2mn5qfFbwp8QvFyrF8SPHfw0h1XUxE0rs6vqMTKAtrClx9ntxqJtyS1qbwI3mRn7IIBcN5fzeY5z7evGtWnTw8uX3ZOolUtdNWcLK0rLbe6WttfsMtyiGHpujh6eIrwvdxjByhzbvR3la76t2ettLHjWmfsgfEWxha98CfGC1\/sO9V47jw5q0V9eWtxHI5eE2MkUljqVpNBOLm4sniuIxY+dcpG1wkkjScv8Aa06kHUp1adSMbS51VlByk9F7vI4u++qteL95O56csDHmUMRg6kJtcqcYRbitPieqslo9rdlseQ+Kv2cv2nfhnL\/aFi8\/jXQhrF3rOjXmiGeXxT4G1WCOzmstS0y2adpNWtXljuLfV9Ntxa\/b7eWaRrJJYorqu15tKeHiqtJw6wkpOpH7Mt170Hro3dXTu1qcf9nUXVfJKMW4qFSnOKjGcXzRj0UWr3aenLteSP3e\/wCCXf8AwUp1f40aLpfwr+K819pXxe+G9j\/wj9wdddoNVvZ7ezifULHUzdQwySWl20K6rpk0lsCNPmsN0VteLJEPpqU8JjIWhKDnXp06mjVqkuWPNKHLtPmupLzsz4LMcBicurSnyydGnUqRgopPkhzS5YOVm5Qaso3u9pJ2PuD9rj9pbTdbtR4A0xLfUoLe+gn1a3gQzIsosXurJ5dRMbWliHY3EIS8KKpijllVDc26nnlhqVBcs5KdTTmi1dQWsoptacz5VJJtdOtiKLqV\/ejBqm7qDf23dRk0nryxbadou677HxleeP8Aw9F4Eu9a8WeKPCnhyPTYribTtB067stVj8Ovf2i29xfNd7bfZdtFCLUwtCttG4H2RvMjzTlCLpqc404Qjdw5pqolda81vdsknFx1trd7nZSotTUIqpObcfgi4\/JXs3e91JpXVtNj82Lnx14a8Y\/ECy\/4RL4ufFCTU7jxHY6lZappK2LxacLCZozaEQW8UF\/YMdkht\/tsU6Tx+abiaUh68PEZlCVSMKWOUa0KidNwUYSst1Lld6kX\/LKyj1d2fSUMnrwpSq1ctlKjKny1FUk5rml8M48y9ye\/vR30SionvvxIOpWOgXlj4n8R\/wDCZiGGfxHqOkyaQ2gaxHA7x3t1eRLaXEz65dxRhnMNy8U8vlk2zyzokLbYqpXxeFk516dT2DU5KlSjQnBOaftJRjdVWuil76veO3K+LDYTD4LFxjTo1af1j3E61aVeDfK0oKU5XpXtbS0NuZK6a\/OP4+fDb4f\/ABnu\/BvijwpBFquq6lrtx4V8QW+kyXEc8mnWOm3cd54fFi15aJeavqdxEkTQmFddubiSJrCPzbszKsozN4V06cJcyqc9oRTV5QjGCUL6c7Wr+HmfxXTbLzPL\/bKo6qdLkimpzd7OUpTjKSjZunzWStrZtJp3R+13\/BK7w54W8Pfsp6Xa+CtC8QeG9CufG3jeWDRvFEtjPrOnsPEFzEba8k06CG3UxCHYkbNLPFGBHc3FxOkkrfe+0VTD4ZqTknCbu1y6+0lGVtXdKySbte12lsfmfsqlPF42NVQVRV0n7OTlBpUqfLJXjBpyjZyVnrs2rH6LXAbacdAHY9TwWc8dMZI6jBzjPSpVuaOys12Xz+7zKaumtl\/wPwOeu440ieWZwkS72kaRgFQDjJduigZ35HPtkGtnOK3fz6f8A5vYybfKr6uyXXX+vuZ5Pr3xP8AaDdtZ6jq9rHOFfejTWsbKETJYRzzQFwV+YlSTxjlmUnmqZhhKE+WpiKdOXZyUXpr1tfu+x2U8px1WKnToTmtdYxctkusU+6+8+bP2hvjDrui+FtW8S\/Ca6Os3lh4S1K50+K20WPWYTf6jJZWkMk32mW3trJoLeO5vbfUJbuO2jIR1nMmxG8vH5xUowqVcHW55Rp6KNJ1YpTnH3m18KjG8ru0bbqSZyVcsruSjXp2hFyu+eMXe3K47tbtN68ycY7M\/GK3+LHi34CeMtd+LWoaVpeh6XdeFZvF+j+PfA5v9V07QZrewt7HURLrEelfYdE0nxDqOorHql9b6VfX50jT\/AOzILtZ9UQ2\/yuCxWKyyvPER9nVqYmLqwVOaqRgptR5IuXuwhObi6r9nK38NSva84jBUsdCnRSrQlRqRu0nRqOcE9Y7XkruKtoouWiu2u7\/4J7ftd+OrT4yC0174rTfFLxX8J\/B+vfFPTfEuk+GL\/R5Lnw54o8eeGfFHijS\/EGjanosHii6TX7LVP7LjnS8d30nTrsw2pDR3TLH5ni5YZqvinOng7VI1IxUlrWhPEqr+7VSd7uMp25owuktU16OR4CnTzCVSlhJQeIjXjCnWqRlU55UIvlpTVRwinKnzKDbXOtG42S8++E\/7T37Unxb8YxfC+b4oeIfGFrca\/qNulmt1BeWSQaK5uZ7LUbfUI3vpPIvYrIGX+yrVDYTyT22ph4kkb7DN8RiYOrh6XtkpwUnGUYqUpe2SpxhKnDrBOelRtcrlKG9vTybLsHVweExlb2cnFUpJ+2qzppyoxlKrOFWq0owqOybjqnyxstT7Z\/aj\/aPu7HxZB4F8RaxceIzp2h6FZYtRb3U9xqKmK4urBbRLq52pJL9vnhtZ45nQNcOzT+U1weTGyhhKaqVakKlb2dpNuK5OWKdnbVc1pctt3aLtdt+tgaP1uc4YenUjSVX3Xraesle7918l6ad+jbXRL8a\/21P2lfi78MPCel+FfCEGo6B8QPi5rc0Gj3MD3Re30m1gkt7OLTrWyt0lsNQvLyS4sd0zK7nSby3uI7crFNP8HOVPMMZicXiJOGBwsed80lFVXG6jG+3LFWlJrduKSVj9GyzB+wo4ejThGri6s1TUGm1CU3zSlK8rPlUZNO+m92ppHsn7KXwK8aQ6V4f8Z\/GTVb\/XtYnjiuTa6jqk91KspTznmuSZJRHO77R+8lmUeYodnZCG\/Ns5zihi68nhuSNCErJpyTqK\/wB7S6apX6Lr+nYfCxw1KNGMPfcfefs4xs7K6jy6NX6rV\/zPS37NfD\/4o+FtDay0pLWzQNb755HS2lPmoxCqxCAcgMwJ+6xIQJnAxwnFVDCzhh5xjacbzdk03stLLTR3X95tanHiMgq4mM60XL3ZNRWqdn8T33s7Nvtvue\/6Z4q8HC7XU3uJJQRL+4MsnkKh+fMCPK53BvLfOXlkA2AjIC\/Y4HiXBpxftbpu3JKTcE7Nt6vfVK7T0slZHzWK4fxEovlppOO84pczto00la2mytq9bvf87v2i3+F2m\/ErS\/j1o+tHwL8YPhxbX19Z6no91JbWXiXQ4Z49Rn0XXLBLmCzvLk2NkJ7KW4Wd441S3kWW1aOJPossz\/BYqcqVGcKWKpNygocrjUipK11y3UpK66cz0lpqfNZtkWMw9L95TlWwldRi+ZSUqU3FrmhK3wxdna3b3jwL9mb9tK+\/a08e2fhzUbyz0nwh4ZYal4z1aGWSFvEGpTXV1\/ZNrbk5KXL6faWl1cQq8k8cN2sMkMLuFXXiDiKhlrwmAxOIhCWK5alWd+VzVNWbk3eylKSgkt3GTfRDyHhCtiKWIzCnTlUjRbpUKajzRjza2S2aindu2iaaa1Z6j4k+HPhr4yftEahpHg+4utE+BngrSrTT\/iBcteS3Z8d+OHnmvZdBtbi6LxLZaJbXVqNVntmeKGaafS2Vb61c2fzmPz6h7OOGw9acYVoqdSfPZwptaON3pOr0Vnyw95r3os+qy7h+VJ\/XMTQU8TGfJhafJpZJuVWce0HpFfaldOyjr+ifg7Vfhb8P7eztNE8NaLaCziS1tfIsrRfLhgQCFUPk5QL02KTkFeoIz5lHiHLMFJNQhzOyc\/inf+82m+\/9aHfXyLMMbGznPlWri7pLXtez0a02VvM8F\/aE+Eup\/GzxRpPi3wh4ruPDbWGjaymow2cazpqW\/wAhLexkiyqqhsp79Y2X51mZHXayB69uOcTxiqSw1SKhWo8sr30cXe2mnvJr7tbnhTyalhnGOJoudSjWTg4uz1i0m73ttb5pdkvyUs\/CurfAbW4LxfEV5rqXHxB06z8R6exmmsYpFeDTNF8RLHH5t1a6hZa1LcnUbgSTRSW32WBo7eGyO\/0MN7WNCOJqOP7qan7vWcUnB8y\/mjdNbtq13rfx80dHE1qmEp0nCXsZxpttKXInKVSlbqlyqUbu6Um\/M\/pF\/ZS1zwZ4K+COg2tulnoelXN1r\/iaWPZ9lhVNV167ub2+jDAhhc6jPJczQpLLdRy3KmdDI5J\/ScBilPL8LVq8tBKjpFuyhDnnq+bvo3ro5Jbn4\/jsJKGPxVOnz1pyr7r3nKXJC70sraKKdl8O17kfj39sv4a+F2uLfT45fEEsUUhe4+36ZotiCTJsKXmq3cEe0urZeRIlKRu0fmkqp5cRnmFou0Izqyte6apx2ukpSfvXS7dHY7cNw\/i6+s5QpLqlepJdH7seq7XbvofEHxB\/4KY6N\/wkmheFbHStItZtZglltILfX49bvHnLokFjOtlYJbwPdsZDBcSSfZw8aNDJIUUr4WL4mr80Y0sNBU7KUp88p3btZXUIpu2q3t+J9Fg+FIRpVKtStOU4yUeX2ah7rvzSu5NuN1G7Ss00ttq+v6r4mutJuPEGt+J\/BtlDrpnlg0TUrAx3ENvdPcrHHqX2q4hufMKeUkdrNbtFJKY5RHIuxG4K9ec41K1arQtVbapct5tS2c3dS2fwtPXe510KCUoUqNOs5U+W9S6STjZPli1bXlk1KMlutVq1+b\/i34h+Ifhp4zvNR02\/aTw3q88j3Nh4fuZ7\/wAH38FyqW1640jTNNtxpDt5zzJe29lNbkSGaeWZPNW3+arTqUqkvq9WUac7uUIylBa2i42tBJNu2iVlayvv9Ksvw2YYZ08XRhKrGHKq0lH21rOV1NuXtJcqt7za0s2rq\/n\/AO0D8SdD8f8AgI+E9N8NWOmaEnhDTrC9l0+XWYYTPazQBtE0+z8NWF5YRW7SW1jNqF1d2MUt8zDUGubhoZLeDOOa154inSUI0\/Zqnzv3ounCCjzJKMuVpuKm5SXM5tSk72Z8ljuGlgEp8vtlUnLkktqjV7TleHuztJLku4ct+XbT4A+FPxn174EfFLQr74eP4p0fw14UvpT4jN1oUc1nrlhrdnFouqR69ZWjt4g8nWF1aaCw1ae5sdP0q40nR9+mxRXdsE9ytOGKws40qt6laFSMeSKveTafKrqKTt70Hdy5naTkk15MMDXwlWni54W1SjKFS3O4xhCKdou\/uOMuZxcopLVOUbKR+r\/7Lsd74R8earLq\/jG\/v9RtdY8ba9eJF4d0zdZ6RocOpMvh7+0LWe9FtqZDv9nEeJ9RZ5bW+jilhu7dvrsyn7fNIVaNJUqVKrZydSfNUcJVJTnGLim4tRSV2lrdXVmzKYqhk1KlWqTqVpYKlyx5Y8vNKlCEeaT5kmm7tK97b3uljx\/HDwrrXxU8ceIdX0HTNYNodNtNCtrq2t4Z7rXJ5RaWkbPeRytO+9bWSSWZYI7eznMkEC3Ekjr8pxZifYYqsoy9pGUW5pu19LpNfCry5XbVtN63s39hwzgZ4jC0Eoum5TnZ2b5YRk1OTSd7qN\/ebvzcvmdVqHgvw78bfiR4Nvvib4DgttQ+FrxwXOutql5Bo1nNeaZHqFxNPYxvDFbSIt7gSXMN8sgkM1q1o0t00\/wmY5w8Rl+GwEYuj7aNOOKlFqMJU05O85NJxTa1tZPRp9\/0DKcull+KxWLVWNR\/vFhoyjzVIy92Fqas+fmXu\/ZkrNNtM9Q+L3x1+Bvwx8PS22meGPiJrFrYwKi6loXh+9eI7GKYt7e7\/wBLuUUZkPl24bbj5QdxrwJYTJqkY4aniKcKrXKp1KypU+Z3tH2lRtO77s96g84nN1HSXLu4cvPV5dbtQpRTjZW93fdNHyp8Pf2yvg\/431dbXw9rd3bXyXUUJ0vxDp8+j6nFPKeIbi2uUwQHfZlQhaQgbMZA+XznI8XlzVf2UZ0rNxq0qsK8LX6Tg2n87PX0v9Vl1SWJhKF3zLSUJRlComtbcs1GWq2s38j7qs\/iPZpBa3Buo4F3wKymTYA8mFXac8q7EBQjqAzYRBgLXhPMXDktLlmnFPlvZtu23oltZLX5b08HJqfuuUXe3Mr2snfddLdfm+p+RX\/BSnxxB4U0PT\/FMPiC\/wBMixdx3rQRyyxXH2y6ltjBdNEhuLNbvzBCLmK1ult\/kVYDGqKPt+BZzr597J83tKsJSg5ydnypzXLe2sUno911TuebxDGnR4fxFdwhOnh3SjLS7ir8j6yi+dtavVNba3Xyn\/wSr16\/1a21mx07VooG1nxDPPPc6TZyJFDCiC1t47G61Dbdx+TaLFb2001mLiNBJKH835m18WpzhnOBmlLnhThCClK6TUr83LFWb5tXdWfW60NvDJU63DFSVWMOWVes5W0lJXUVG6V0lCCStK6W1m7n9DWi6rpng\/Trbwtonkaa9tHJ5UIAXbLIxnlmuXYPNdXFy8jXF3dSeZcXE0ktxK0k7SyP8I8yxKh7KdabqTs5Sk5PXre6fTqlpZK2mvvVMHSU\/bRpQlBPRQs7rW3LayjFPTl6LRabYPjX42+G\/B4sE8R6zpml\/vCs+oXt\/FZ2yqFBuJpZp5IY440XnLspH3vdd6LxGPrU8Lh4yrVk1rBSk5W6tWVteu2vYydOOHp1sRVThSjC\/LJqOuui3betklq7eZ1fwa\/4KE\/s3eJvEJ8EaDqWt6wrA2V7410vQtRn8J2N3L0jOrG28hzkLKAsj5jZZ18yPLD9ZwOHjleGp08bOGHqVFpz16CqK8eVy9gp+05Hazla0Xe7vofm+PWJxladWhRnVpQd3H2VWzSd7KbiqfNa7S5r8vTqvhP9qi41H4X\/ALSnhzW5td0pvhF8XP7YkttSMrHTLTxXa2aTT2jXBzZ2ceqWcd1qoW+aCCCePU5Sy3P2evd4bxn1mlmGW1JwqyoyVWjOMrxqYepN2lZWa9nUTUtW4qUfU+c4jwVP2eDzLD0nCpaVKtFr3oVIQu2+l5Q5Utr8j1s7Gbq\/7YS2GqeFvAviPxU\/hzwl4QjvNI8MaANY8Niy8S6nq+qXWpz6m+kWV9c+LNaaSNreDT5tM1E6c1lDLLc2byJJPD9ZP61OlRot1JQw8WuSLcYq85VHKU+VW5lKPVpKKsmtH8TRw2GU6lXlgq+IqKUptczXuxioRTlLonLSMH7zTa0t8sfFL9rS\/wDGHi9Ph98F\/Cmj+N\/Gd3LbQXuo2lrqVp4P8M3RnMe7WtR0mWDUb67tVjLyaZHdi8jmgW3vprOJMJzznRwUXicbVVKlvGnKUfaT3ty3aTV7Wk4p2dz0aWDq4lexwkZTm2lOpFPkim9eZ7KWj93VdGkfa3w5\/Zr8T+EfCEHjPTdHuPG3xdv4bG71vxrcPPHaAWsEKwaVpEV7LItlpFs0G23itdkU6L5pkaWaW7f5LH8RwqNOjSn7OM3yum3JQje97JpN95SfZX2v72EyGbbjiaihHl1g0rylrFt6O0rWurdWfE\/x4+Pvxr8Fah4gt\/iNZNplw8FzBBPNLdXlhLbvjNvIi7rewjZvKHnxyqWMZ+03TQzNCerKcxwGYSUY4iU6l\/ehNpvmb95Wkk736L5I68TklTDU1Vp017OC0nFRXLa9uaSs7O+vM+V32PjD9mr9tm28NeLPGOka\/rWqT6ZrMdtCvhfX9Wk1TQtPvptXtprmbStU1OTUNha3W6D6e1k9lqMlxGzXc8cYib6zEYOLw8WqMJuVoucYpTSV5vnV4pr3d77q1mj5mMnVxMoqq6M6bk3FWUZc3uLlatJOTlFt2uouTTTP3F8AfD3wDr2i3es+DPEnhez8IwXE9rr7WXhnSNZ0KLW2gsmtftWn6nJcqhtdTniWzmh0u706O8t3WE2aX08MvzdfA3l9ap1owpQ5YzqOMna6tytuTklKTsrJrlTs0mkumeJnODwlehOeIqR56XvK8dW1OFlySlGzm05czcryi3G6+X\/H\/wAOxcePZ9H8T+GXstPu9c0\/\/hDtd+H1lp2j6dqKC4hlstKSTwro+g64EDTySakt5eT36ywQyCeC2+2W9Yxq1KUqlWg4VFdy5fjXuxnK+t4tpxjFS5U7ys7ux5GNpQVGnh6zdOUkoKtyxjNScknzX1j7s5ySTlG0E1LRn3t+yVq3wnbwJ4y8cal4K1TWL\/xb49+IUNlqVz401m91G18MJe3Ft\/bmmmYi3tJbyW2vdRGj6ja6lp0NtHplrDDIsYvZ\/wA+8TvGfMOEvFLKuBcJk9LMsFjMgnxBmWZKtPDxwuHnisVhqcMPSpxnCs4Qw0qlSdVrnhOmopN6fp\/ht4OYTirwyxfF+JzGrgMThMfQyrCYOVKFV18SqGGnGFedR88JzniVCMYJclpucpRsfA1vo2nWf7SPg\/RoBfpY+JfixpdjoT3kyzifTtLs1eXVpo0hhjNxe\/armR4jGsIla1ZEikgjUe\/Uzypn2SzzNOSvClGzcZVG61alCMm7RuoxlGy0slJWs7EYbIoZNj54BpJ06eInWStFRcIVP3a1la7g02pNu7bZ+zFh8IvFvjbVfitP4CudL08J4kEFtc6naTy2Etxpeh6PpM0ckkA8yRxd2N0kjRE7Jg4CF0cV89icDjczniKWCnGlTwvLS5p8zTcEpOCaW95PTXXm0sd2HxeCwMcJPGxnU9tz1HGm0p8tScrOMXovdSd3Zcso9z8WP2uPhv8A8FFvCPiOe10vW\/hnPoct1brBFZzeIJLm2tTfRCWUxatpGi6ebZNPNxJ9lF1fSm4jiSGSWI7D2ZVheDcLTqUOJ8RmP1+UZckpRqQwt7ppU\/Zc0kormtKUbXWqOzMMTxDiKuHrcKYPAPBKSVVV+R4uVk3e8qnI1ezfLKL1srnFfCD4TfEPxd8TRoepeH4vF91a63HbR+L9K0e30d9csvsxure+ezti32V4pYjb3lpK3nW8iFUkuIGgupvk89oYOnifY5Fja2IwVaD9lQcqs5Rm5KMqfJUV1JpuUekoa6Pmivs8ux+J\/stVs5wtLBZnBc1aEXGVNJrSUZxdmmvO0bWd76+z\/t+anr37NeleGNH8WX934Q0nxDbx3sWpJBLPM00CT3JtLZIt7T3UNvZT3sqxLI0drBPcyosMUkicGT8LZzis4WDhgpYnEfV3iI0ZaJ0W+WU5O6iowlZN3teSWjYnxBkeFymtmGPxtLDUadZYf2kutWom4xjFJycpLVK1mlJ9D8vfjzMnxG\/Za8XapZfHTUviIh8Nf2\/\/AMI54j0e1t7mztkuP7QgudLvkmubyzMamzZBdCE3loVO3yZodv6LllTEZVxLk2DzLh6OXVpV1Ro4zD1ZyU3OMqfLUtenOM1zLaMouz5tLS+TzKOGzbhjiDG5VmqxeF+qVqtanJQioeySqwtHkhUhKMo6X516Hj\/\/AATn8UfGjSfDeo6P8J7PwzoN1Fdm61Xx347imbR9MiaMra21pCiPFc3BZHmncS+VDGyOZOCknq8dUsgpZnhsdnDr4ipZwwmCwjhzycW5TnUk78q1Sj1bTSWlzyeBsRm9bh76jl0KVGlTlKWIxVfnacppONOlTg+aUor3pNuMVzJXb0f6IeHvjT4mtfHsNj4p\/aE8G\/ErxoLyGV9G8KaporSp5Aka5s7bTdMeKWSCCPezEo8yRoxuC23J\/M+IYVa+HliMJw3jctw0Y+7i8RRqqnON0oS9rVjZuV0vi1b919D9JyKrgHP6pVzjCYrFNtSw8a9JVoy5byapQk5RUWm3eF4xWvvHtn7RXgPxX4s0Hw946l8I6z4z0PJRtIso1mluEu7d2EcP2jyrUu88KWvmSzQxJJMommjgV5F+SyTH4mjiE4YpYSniYezjipKXs4TjKy5pJSaSTbcoxbSXuqTsfRYijhFQxFCdKNerSTn7JJOU7RuoqMnGN5X91SaXdpXOK+EOjfteeJTo\/gfwHc+D\/gXpcV0kmleGfCXgnVfiT4zaeWePM\/iicw+GdA0uRVO65vbbxLqVsuxUT5DlfsKtTJYShHnz3iDMqslF1MPKOBw8ZPZ0nJVa0lHdc9ONkle2x8dLCZvN1cTUoZJlmBhHmSxs5Yuq4JO8ZRo1cPShN21hTdXryya1Pef+Cjuh\/ET4SfsvWlz8aPE3h\/4m6joWp217J9g8JW3hy8HnRmzghl0y7utespZLgTyw3t7LLe\/LcyRvbMpLj6vhKVbC8RYLDyrT55U6sVCtKMqtOEo39nVnCFONVaL37Kakr7nynEdLDYvJsxq0cL7Gm6NOpeMpzpSq0pJupS5uadNSbsqblJOLab5dF+GvhC88ZftK3Ph74Z\/AGS6+HljJBHD4zutPa6vvE93FeCSOPSrfXyY10ex2W4s5odMlWVCII5jeQCSaT9Qz7OcHw9hnjMwn7WpU0w1GNv3jjdpWTs22rXldX2s7M\/NclyPE53V+q4OKw1ChaeLr21jGcm3Tpyv7raT5uVv1s2j+n79g\/wD4JpfD74JeDNCvPGBfXdZ4uJbXU2Fxp9nO0gmlFtGypLdzSXBad572ScGQsyW+4sW\/NlmmL4hrfW8XFUMPKb9lh5Jy54x0TltvHWylbfSS1PuKuHw2UUvqmCi5zpx1rxdpN2esndLR6Xte\/wBqx+tmtad4S8P6V5ED6bZRpGYlhaONpCwjVUIi2MCvlqB+8aBdoyIiMg+hiYYehQvGVKneNlG13fo+V32VtNE7fCeVQqVq1azhOpaV+ZNJW+0rrVO\/VKT1+LY+Efjp+zX8MPjp4c1PRfF2gWeqx3kEyRXfk\/Z5oWO\/95BIkakSITvDRbHDYZOQTXyFXDV8PUWMwlWrQxEJc8K0Pdva71jZwkm9ZKyXQ+nw2NjzOhNUqlOpHlnRnacZLbW9ndJ2vq09eyP5rv2j\/wDgi9408LS694u+DXi43CWpe8tvDmu253yWySJOtvp+rRLIRIyR+XCl5asgZ1jM0aJkfaZXx\/isNGjRznB89O6hPF4ZtOPRTnRdoyumubllHVO13o\/n8y4TwONq1a2W4mWEruN44esozoSbabjGq37Smk4tK6q27qPw+K\/s6\/Gj48\/BTxF\/wr++tdUuxp8uotrXhPW9G1y6F1d3lpIr6jdR6VFe6bJYvdWqTLd3usWFxFIzFkaOJpJPqJ1cuzLlxlCtGeHnFctSnUSpu7lzJwcovmjG\/u8klzJPSTseT9VxuEp\/VsVh2sTF83NyJ1LpLkcakYyi6c5W5pe0T5W10s\/6B\/2MfHGrfE\/xVZT+Mr2ym0oHSrmw0SJNIkGia7E9yttpFydJLafBeXMJdtPv1kuBctaz201tbXSRxT8+RRoVc3qYecp8jUXFTpyhCpNN8nI5wguaaUpRdnzODupaI+f4ww1SllVLEUaaU4yftbTU5xiryctJNuKl7tSKlBxum\/ds11f7NfwouvDnwR+IXhfQPGvhLxx400rV4r2ym0TWr\/UJ9Th8YanpFxPbTyXfkNpX2tNEu7TS5IGg0zztUeDzIRJPNN+Pcb5XhOKcTi+IcBRVLiCjkX9gYeVenb2kHi6GIpUVOKTjB1IVaalJpOVfklKKldftfhrn1TJsHh+G8xbWQyzulneLp0Gm6LhhMThqtWUXZVXFypVppRclCleEG4pLwH4lfCeTwp8Xv2fNcvv7e0\/WPDvxud9Vs9VSaSWO8v8AS5ZLDT5pLr7PKotlWB53HmK8slxAjuFg8\/fhKpj8Hw\/i8uzVTeOw9LCxxPtdGqsayq6rlSurKM0la+kfdSN+KKmDxWf\/AFzLfYfUcVgsT9WlQ5eSolT9jKfuuVueV501J3tebScpI\/om+GNtoHgTwLZWer7EkYzX97LuEc15d3krS3FxMwCF3mdyzOxDEY5yDX6Ll31bL8AnibKTnOrOcnZ1JTk25SfezVt7JLU\/MMX9YxuN\/wBnUpKMKdKKXwxjGNkl177b380ct8SPi38HYtHvW8Qado97Z20UhYalHFcqfJyckXAkjwAFAyGO5gQTkmvDzjiLh9U5e3o0avLzcqqRU5OST+G6dm3p31vvc+gyrIs854yoVq1OU9ZeyfLFRk1du1tt2+3c+Z\/C3xu+DfgVbvx146fwv8M9KiaF\/DWkDSYpdU1qxvHVIrhri3YJai4crA9vDEJLMeW96Y0kIHzOVZjgo1o4rFUaeD54zqYLCQw\/ta1em7tN1OZQpyai9I8rirc3xRT+gx2X46vB4XBSrY+UZKnjMS6vJSpVE0mo0+V1Kii3du7U7e69GcB+2J4m\/ZP\/AGtvh5pPhbxPYadHqlju8TaDNfQaNqs0OmW8BfUNUsbbUYbu0vEgtJxcS2729xFcQI0EQ86WJqjMuN8HiZKeW0sxy3McE6lq8JezthlFzq0nVpzg+flg6iottylT5Y3vr2ZZwbjsLFyzD6hmmBryhF0K1JVI+3k1Spt06ifLrLk9rGzpe05pNJM\/Cr\/gpF+wrZfDf9m7WPH\/AIRj0zVbjS\/DNpoukal4VhvdDgm8JvLGW03UNKttRudJjsra3nnvLaOzso1juVbyGjNxKsndkXEWavPsneb5hHMMrxVZTpValOjOVKr7N+wnGfIqkZupy0rqyal7+qTRi8nwWKyrOsvyXKo5fmLwmIp1KHtqlOnVgrTrwuuVTShBzip807xSjZtn5+f8ExvgnpHxw8K3XgTxhPdvpkXiG5k1nS11XUtPGt6hbFUsrHVbnSbmz1K40yK3kivJrOK6ihuS6C4WWIPE3R4l5xisrzrAYvLXTjWr4aMMLXqUqdWNCnUledSnGpGcYVm3yqoo88E3yWk7o8Psmp4jhPFYLMKNbnwOOrU8dRhUnSqSq0m0oVJU3FypyiouUb8s\/hkpRun\/AEDeCf8Agn18Fvhv4i8M6nL4c+H+lXtxexWXhTw14J8H6TpNzc3zBmE02oSpd6zqF8IRI0lzc38dvChmmkgLAY+IzPNc7xlCnhcyzeviamMtRjSjWnO8G7u0Lqmr73d1HfRqz9zL8JlmEdV5blFDCxw961XETp041ebZPmhCHKlrFRhFSlsnZtn6mW\/ib9nL4deDrHwlqGraXofiNLZbZ7q+toLqz0K9k2xyi5D7mKwMJGn+TZ+7yXXAI9vC5rwXlOXUssk7Y9xVOeIqYX61DDV7RVSU0uZuz5m0qdpNROCtk3F2a4upmFOHPgl70aNOv7CpiKcVePKm4xTasleW197u\/wAfW\/7Wlj4O+JHizwrZP4e8TeFrXUYrTw98RdFsVstM1v7XY294LXOQkV7bSTtazCKUxSSxMUSN2MS\/OrP8TgKlergqmHxeCnOtGliY4aWHrShD3VUdKXLJRvf7MbcvNZpo+ghwzhsXSw0MXHEYTHKlCeIwc6qrexk9rTi5RkmrSV23qlfRn5gf8FV\/iFH8U\/gJ4\/tLW3vl1qbTTPp00kyzQSy27pcARRxqdpdYmgLsSQr5ZTgV0cFcQutxhl9erH+JX5Ksp1HLmU04XSt7rTaavJ32OnibhOb4SzSjhKtN1IYCvKjGFPlm6kIc6hJ397ncVFO2jd7M+VP+CF\/h7wzc+G\/FHxDu4bQ6pJ4mlsZY5wQ1m9jbWiKI\/tCsmzmVyyHarTGOIIVNfe+JFatW4lwOFk4\/VqGDhUgm1ZyqTk5TaXVctk5Lz6s\/JeB1SjwpVrwT9ticZXjXVmmnRUaap9Xdb6W1bTVz+nyD4o6NFbranVI1uGHlpGhOyFTyHj5DeaQONqleN+QCxrz6GKpUnBOrZ7WSlyx00klp7z66W0ukzWvh61Sm5Rpe6lve0pa\/C9HaKtffyPzw+Ovxg+Oni7xPqHhn4VahZaZZaPMwuNY1W2le3MhiDI0RSWKaZkdthcuw3AMysp+VUsQsTXc8TVq1MPSm1GlTag371ryqSu+kko76LXo\/VoYLC0MJB1YctetBO7vOXV8sY+7GKejb82rdX578PtB+NOiava+Kvih+1dL\/AGpJMZRoyWen2\/huzgf5U0+OKe4h80\/IhLyKobJjMLKgY+hisfl00o0qSpqMVacqs6s223dyvPkVukVHZa9TCnga7hONLBzkm7RcVyTtvsoN+d+Zqz2P0w8D+OfAXijTrbQ9R1y08Sa1cIsEs8FpawpOD8pZEtmZHbLcsnBOV2jIqsHjMqxL+q1eatWmrJqHKttotN3t6r02PFzLLs0wUvrMYqlT3cZTbajbXmTSdl0Z+KP\/AAVp\/ZVu\/hzoSftMfCq2lFx4Tz\/wl2mwRTP\/AGh4fvD5N19rs47q2gu4IHdHnS58yEQeYWU42N6nD0oZNm\/9nTlKWX5tNQpOdn9Vxdm6bi5KXKq3wJK3vcqvrrlmU62aZS8RBL69lcfbWS\/3nBxV69JpNKbgn7SN7vljJdj4I\/Zs+P3\/AAg2n+Gdfez0rRtJ1S9stX0g+GfFOj6VF4hvreRHglfShqWo3i2GmzkyX1tLZW0Q1JY4PsyT5kPt42hiKGOlXo1MVOtRlzVVOE5RpUoc0o\/vFGNOVScvhWtoa3b0OKk8NjsvWHnTwtPDVqEo0qkeXmrVasVzqnTUpTpqKa5pPlfNdOLtp\/WD8Pv+Ea+EsEmveFdB8L6PJFpkunA2+kRae01pBGgismW3htDmARxPFFCWWAqPK52mvBjiIYKUq1GjThUjCS56sZWkpRS5ZNW95av3G31u+n4XkGb4jCY2hKtXxGIwlSSo1qCqy5pxlLdOSa5ovlkm4tO1nZNnxt+0ZZ+IvEV\/4V8bak2nWlp4Q1u212z0DQDcXVmllDq2na5qt+7XUUTXeo3sVtd2bPFHbW9lBHJbWx8m4Lw\/NNVZfWcZWWHpe1hKMMLhOeNKManNXnU9\/llOpOrUXMoxjCEaaUVaJ++ZJxFgs4SpYCjjPZ0K8KVTF490niKjVJUYRSpynGFGELKPNUlOpKTlN3sj7X+KHj+LVNAtjYXYSM2luybGzkCNBjAzySCCMNswCOjYx4lzSNTBQ9lUsuSLV3vypK1\/LbV9O59Fw7l8YYn95G\/M5O\/a7d3ta3VeqXa348ftUftDp8N5tCuPEGi+J9e0S11i01TxBH4e0mXWJYdMtLlFjee3ikiSO2a9eI3FxNIscEUDvKQoUn4jJcFWzzMIUfaUIyiuanDE1VShOUbtxTd7ystI21b08vvsRWp4DBVZwVT34OjB0ac51FKp7vNyQjObhFPVqOnc9F8bftAa\/wDFfwRPa+C\/gY+u2uiWX2ttWtfHnh1b5NPSLTPsuq6bZ2kd3He6fqT6h9m0i7sb67h1G7tNStbMyNYXez7rOcrx9ehSoywaoKlFf7RR5q1rPlfwQXJLZWtfRqx87w3Lhiljf9r4inSqVaig6NbBV6UHUm5vkqTqyTTgo883KMIRjOM+a0lb5t8M\/tDfBzwX42vdL+KPgvxd4D+It74W8QeE7OX4jrbXllq1yYJ7W+0XSNVhSC1ju2eKa1twsCzyuEUujyhH+XWTYylGpXoQWMoU41aeLUG5yoTqQcHKrRlCM4JQk05tS5eZt2Vz7zH4XCvCQ+o53gq9KdWhXw1KjUWHqzpqoqlOVNOrL2zj7lSVNOLfxKGlz1d\/jlPq\/wAP\/Dngzxnbw3eg3GhR399bapapqMNxYJY5t7Q2E89ul095cNDbJG0yKJHSQ7RGSOHhHC1sTxLgMDUqKeBw1etXlfmfLCnSquys4\/aUYqzTbkn5ni8dRw2E4TzfMqMnTxlaNDDUHTl7ObxFXE0tYz1kpU4udTT7EGrnxp8MfhVZ\/s4\/F\/xb43+HV35nw68Qaj4Ynj0q3tWsp\/Der3NhPb63YPb\/AG2+YactzDaS6a\/msUsbuJGkmkikEX2XiJhHVo4WlSlOosMq0sPindxlTc1UVFN3k5UJznT96T54Km924rg8K88pZjDFvHRoU8XiY0aeJoXjzvFYekoRxdRq0W8fSj7aTjGK9vCv7vK43+xfF\/7R3hi5+J9injjxWPDujeEvB8+owatLrB0hbC51P7Ru1Vb0yJJE1tBpsiRuH2u0zRyZA2t+a0MNisVSdRUa+N5pvDUadGMpVOdRi37NQTlztyjpZXtvpp+hYjBwp3VCVKjKc1iKrqcip+yg5Jc\/O1H2eknJtpJXd7I+VNU8QaN8WLiW08CXPxb+PavqVpFPLpOl62ujXWoavfpDpv27XPEEmn2ly15dOkVrLaxXVu0pQWdp5giFfR0MmxFKMfbUqGExPKopOmqmKg5Wg4clD2s1UnJqKVRwqTfuuV2zvo4dUoOtiMXgcDhHGrWU8RjKcac6WHpyq1alKDcYSp0qSlVkqbajBNy0tbM\/aL\/aD+KHw4+EWkfDPX\/2c\/DPw8dL7R9B8M+H38Y3138Q9UvtY1HVLKK8fTbXRTZ2tvHLomr3N3e6obK2ia1jijme7u7BJ\/cwfDFTMFDmxbwmGy+NWtisXVwDoxkoxUpxqurivazbvy+7R1s1eyZ8nis44fy\/M+bLcdU4jzLMa1KnDD4GT+qU4TjGSk8SqDo04UoNSlepLRSsr2RxvxJ1XV739nXRr\/x\/LHHqttoF22umabz136d9qS4iknkSIzMkFuiySlUac5lYAkgfDZbRpQ4tdPLU3SeLgsM4x5W\/aTgotRXNy3m3JJOXLsm0fW\/Wksmxc8Z7OHs8PUniG5c0YQVOUpe\/JLmUY395xV0k7K6R+aX\/AATo8d\/Ezxlq2u\/s8\/C7Vk8J3\/iXxLeeLtT8RSzT202i+FoY1i1RNI8lZUS4kuEsUKNAziW4kMZt1V2X+kOLMpy2nWw2d5jT9v7LB08EqKty1MRdum6stG4xXPdc3RJ3don8ocGZ1XrUsxyjBv2beYVswpy5YyccNVmozjSi00p8\/st1p7STV9T+h3w14q0f4TMPCOv\/ABOuvFF7ZpEl\/Lf3rXdxbXEi7VZ7sAJbsS2Egdo9wAKxO5Yn8yqRqVuerhaElQi2l7KnKUIq97OTi1pa1++h+h1aLlySrQhSlUXu3nGE53v73LzJtykt0rPtZH1S3hbWvGPgi11vwlbRSyXr5kuLfINzHlid8ioj7wuAGAOCMDHBrooYGtOjCeGhzRqqq5NLT2jTbi7Xad76bu2lzxXj6WFxU4YxuPsXTjFSbb5E04tXurdXZrtqfjh8fv2dv2tPiZ410\/SPD3jgfC6OXWda0nXrXVbjT7bUYdNtH0w6R4m0jVdLTXNd1VtTc6vb23h5ItKsRZJpb3VtFfT3t3D99kGL4cyjKo08bR9rmdSFSdeDwk6kudyvSjFuKUvdUeZOVld9keDn1HiLOszdbKsW6GTQdD2MqOJdJNOnbEqcXpBwltU1UmruyZ+937Bv7FGk\/BLwh\/wlnjXXfGfxA8Sagnm2+qeLri7tLbTWdV3RaB4faRk06yG3bFJf3GoahIiAS3rbyKpYTAYirUzOWWU8KpWVCk4SpOK5vjcVJ3qNdXZcuiW4sRjcc6NPKo5jKvGlZ16nNCs5yty2dayk1f7CainpbRHrn7YfhfSvFXwP+JGhTWqXFjrHg7X9MuYZEEuEutKuYgyhlbLIzB0YfxjzFwcGvmuI6n1elTxVGLU8PWpVU9PclTmppp+Tiur8z0OH6LWMhRrNShUfs2ndKUKt6b5k9EpRk01rpsfwO\/BrTbK08VWGj6xZJcal4X8UTytdMt\/eTWlvb3EEOlWM+jL4j0O21SCS4ivkZ4bthHHGFudPuGWV4\/1rEOnVwn1qDvCvQ5uSTUVJOCV1UUJ8umidlulzR0PzrD0atDHzwEm4TwmMmqVRJ3iozk4+46kVNNrVp3drOL1t\/djpd5rjae+m3+oRuGRT+8MH2m4nE8oJIE0PnxPDsRHVjGN2zCguW\/KOeq6P1dpz51yvROclKU7uN5LmUoaR5XzXvazPxqjKV01NRcVpqkrrVXW61au+x88638UfBHiTX\/H3grS9bs9d8RfDp9JtfFmm24iZdOTWbDV4l0qdA\/mi5hj3xXv7v7LFLcW0STNKJI083ibKMxyGFCOYUp4bEYiEa9OjVpVISp0nDnjCveCUajjVjKUIuThCUOdp3iv3Hw0orFZdXxMHTnQxFZwUqVaNTnqU7QlVhySk4wcoWjz2c5KbiuVRPOtJ+KdxHDFoOq3SyQ2iRpDdO5\/exIGjBlBdip+Xaxxt3qVJLiTP5zjMU6tLRe6m24u\/uvW9r9Ff8Ox+3YDD+xm3rzyfotdbK3ne3kd14L8P6RrWsX2tPa2muG6tpLNraeOOffbvyYjG6kCJzhSpCqVOMc7l5ciqeyxTqxUakr2jDqm9paWe9kn3tubZw6kqMIc06TptVFOOjumlvp07K\/W\/byj4madoXgW5e20\/4cSvp7z2l9JZ6VeeJPCrWV3bTGSOWKXw+4tbryyreXHdWLnJw9wyBSv1VbPMRQn7OrhXWp6S991aMoS1XuzhO3XS8ZPfyPVyOeWYympZr7KVdKdOGIdDC4uU6bWsKsayjUXT4KqtbSKdz4W8ffDX4S+OPFFp44v\/AIZT2WpWUkrw6t4s8R33iO+hlu7x9QuZbKxby9H0ycsU3ahFaSa3evZ6ZFdXuy1gQcuM4oxv1Srg8EpYalWcvbwhKU51VJOPJKo1GpKEduVpxipStbmlf6CrleQ0uWrhKFGtikqUadZ4fkjhoQdOT9jGrOs6MnOKlKVJ07xUVK6jG36JfCv4Q+FNa0tvGPxRstLih8Q6dJp\/h7w\/qNxHbPpuh2BiS0uZIAUZdQuLgRTLbPs+xQoizqs87xRdPCWVV8NWeNqydKrXoVVCKclKMLxV\/dcfecrO0pL3U+ZNSP5p8X\/EClXWF4ayLFqphstxXt8fjKTUqWJxyjKPsKMl7lSlhlOSnNc0J1ZuK0pLm24\/2Pvghc6pqXijRdX8Yxar4k0e70tIJPF2tXukXVs873KSpomoy\/Y7+Sxvrprq1mIka3uHzGUildZP0XFUaePwKwmKcH7sqlKTjSjKnU5eWTU1B1Pet7y9pyz1Uulvx3JeNc9yLM8PmWGxlSUqdWlKtQlpRxNKE1J0qqSWjV4qS96Lbkne9\/zM+PH7MOn6jr1r4Q+L2gf2rpsY1LRdI8TQwssV\/p18qi1Md5uGLmymEV19gndbmzkHnoHQNJL+XKpm\/CmPnUwFRwpVqsanNH36M5wbbS3Uede7K9mk+Vq2p\/auR8Y8NeIGSwr0lQr4mlRUcbgMQ4fWsM5pRnCpSb5nT5l7laN6dRpSjJSul3Pwb1r48\/AXwenwz0jxJY+IvCemKiaPqHiFvGN9rMdpbyabJotrfzaf4u0uyv4tE\/sq1GmLNas0UCPbXH2mCaSOT6P\/AF8oyXtZYf6tXqKLq\/V6NKUalSKupK7ik4ybl711CWt07ON0vD7g7HqNWtic0ouLaWF+sRcKcZOXtYwnUw9WXs6ilyN3v7K0d024JPhprXxL8VP4w8ZXzarPb6he6pp1imn2Gm6Dod3fNA+o6ha6bYRRW4vLi3tre3fULyS91KWCCCG51G4eGHy\/kc64sxeOoyw2H9rRw1ablWk5S5qzbvKLaahGF\/sxVn16yf1uHy3h7IMOqOUYGMK7pRozxNSbr4mqow9nCPtJWlZybnZKEUm7RSR+Vf7ef7Q1jca3pHwF0K9drO81+2sPGWp2MkPn2OlXd3ajUbSPzHitzdXVvI6skkkaxwmYTmMSxPX3Xhbwd7SvLiXGwb5YuWAoyT\/e1Ip8tZpx+GNrp9Zcr6H5d4ncWvAYCnw1g6sY4rMpQpZhVi2\/q2FlyqVJ8uiqV1Llkrvlpc6aXNE\/O79lT4h6x8Iv2nPhz4igvZtPa88Tw+B9YMztCy6b4imbQ547sZ3xwWt1dWd2SdoiayTYFSI4\/auJ8BHMMixtKUbzhQlXp63ftcPeorPu1FxXeMrdT8C4YzCplPEuBryi+WWJWCrxk7J0sRL2TjKMnoozlCotrOC6I\/obtP8Agmb44+PniDTNU+J\/ibVtcurvxDr+pwWvhJNU0\/R4vDviaXSLmy0q41LWZr+z0+10T7DNONS0fTotdvW1PU5Enj1Sa3vrb4DLuKo4XLqWXZTlcVUjD2Tr1lCcNUlKrUUYrnldKSSnFR1Tvrf9Jzjh6OYZjiM1zPMq3s+ZTWHpPklTcJTdOjRSn+793lpNy5o6OooKUtP6pv2UfhJ4S8C\/CBNGmntCNFNxpsNvcyCWaWWwLQKALp5bhj8kUYeWWSRidzzSsxZvT4dhh6WXVXXnTdWVavOpdwjKVV1JfDHpq7JRtuktD5\/N6eKxGMo+xp1JU\/ZUoRl70lGlCCS5qj+Jqzcm3dvVq7sXPFvjTQPhlrWmW\/jTwrp9supiafRr5mtbyGZYihkjkMWXspo45Yn8uXAZDuRmKtjHNM7pZVVpxxmEpXmualOMoVIygmk1PlvKlOPMm1Zp3Wt7pdOXZDWzCnOphsTU5ItQmnGdNxbb1imlGpGXLJXTurapKxQ8VftF+EjaDyBYQqIz5SpsAX+EERBsDAxkkDKgsD8xNePjuNMG6anDk0vZJJ6tWvbTqm9rWaZ9flXBWIStL2ru1ztvTlWvxcvytfd26Hz74o8f6F478M+IdJSWCU31heQmGIp5bmVJIxKVOSh2tl+Srbc4zxXzOIzihmmGxFK8b1ITilGSs7q0Z9GnZ2stL6nqYnJMTleIw9dRkoUpxk5VL80Ure4m2uZXWjsnsmfwUeGPGt74D\/ao+LGmavbx6xouieMfE3hS+0lre1uDf6RD4lvbOK8tYbpLiGbWdFV4b2KGe3khutMhv7WQbkSKb9tyuCxPDuXVOX95Uy\/CVbX2nLDRcr3XVuzS0aafdn4zmmOxEOKs1g7OnQx+Ipcsbq9KNeTS0fvVIR5nF3vZNX7\/ANnvxZ+Pngfw74M1\/XvhxeWmo6rpe+yTxhqGn6l4f0jRvtdmrm4stZ1\/TbPw9AIFdIbTXorzUr62uTNHpPhrxFqcdtpcn7r4c+AUeH8zweccT4ihmGMpR58Pl8IRqYbCV5Tjy1ZV5z\/2ipSjfkToxp0ptT5pOMHL+PM\/43WLwtbDZZRq0Yz54uvUU416tNQbcFQUVUpxk2m1GXtKkYtL2acpw\/HT9iBNQ\/4Xr+0pbeINS1S01Dx+fB3jnTE1fTrzQL3zbJfEGlaze2mgavcy63Y6bcanqWoSWo12GK\/1LSbqyvruALMiL+G\/SoymvlfEuCqwhOGCzChPEUeaLgpVXKNOtL3oqcXKdHni5JSlTlGSVpa\/1h9HLMKOYcIVoynCeLy\/GRwteMakKnJSdH2lBSlTcqcpP2jVRwk406sJUk04WX0p8TvD2t3Gs\/ZrC\/m0fUIJJJLfVIIIn0u7DfNMjiRS6MxKyeTKzjIZRPMw85\/5LjUgua8YzTT927jJWe9o37Wvez6pH9M4ZpJT5W4aJpO7emjjqr2evNZd0jhdI+PHjz4K6nBL4g0m6u1t\/kk1TQYXvdO1C3Vclr6w8xprW4+6FmtZJGEu0hJRmGijh4Oq6uExEKM1b9zXmotttWUZ25Wt371nbR62Z6M6NLGU+Rrm0srJ88XttZ3tfWyO38Vf8FC\/B13btf3X\/CQmOytC9xYHw9eBVESs8rPfaslmvkogJKyMoC7twAya9CVLNcRKnTdag3JxhCn7aFRyk9EkoOpu2ktHrpfUVDKKFKE6s6SSjzzqVp3hGMVG7clpZJK+iVlueZ\/sFftm+Df2uPjD8TF1jwDYyReCrKHV\/hhaXd+kuo3lhaahcWer6zd2UlxbWA1C7a40e802GOwuX0e1ju5IdTuZ2b7F+u1PDieQZLgc6rRq5rj6nNLHxjR\/2fA89NSpeziouXLGfPCpVmnBydOzhzKJ\/M3HniVmWYKvlmTVHlmTOtLCydCTWKzKknOPNVq6Sp0qkYOXsaMoc1OXLW9rG5+nviHxrpep6jHeXMkLyW+EWxgdbSy0yAiOJLG4iiZp8KyBpJVXZNGonR2feG4qc6zftZ0lBqL0bUXKKt7rp8yej1UtObQ\/Eqjcmru6vo0tF6eXkuux9ZfDv9iv4o\/EnRdJ8Q\/2pN4K8LzWyy6NqGuzXsVrdLd75oryytLeGfV5NHuIy7w3xsobWWBPtFrdSW4eWP2cvyfMswhGuqaw+HlF+ynXjK9RtP34017\/ACSWsZNWlHVXVmetgshx2Ot7JUop3s61anSTtFS0jKSm73SXLBtykoxTbPbPE37Inw98MeG4fDXj7xXF8TfGOr2Bh8O\/D\/RTa6Xo2qarcpcGxGvarqv9tanZ6TatCmp6jqaaXY6lp+kWd\/c2EN1fwvHbbY\/h3D4ehUjiqscZiJR5cLgoL2GHqVWmqcaknKrUjTT\/AHk6kYwnGnGo4+8kfpXB\/A2Pw+NpZzis2xeUZfl9eEsbmOVxbxcKClH28MJ7X2dLE16nNGhhqU26NWvUjGtKFJ85\/ON8S\/jnofw++InjXwqfD10PDumeINTs9HMcMup\/ZLKC7ljhhMszTal\/o6BEV5jcyvCFEs28NI34NUw0K9etKg6UF7apy0pXXuqclHlc79EtJSb82f1zldOH1TDTxNSpKUqNLmrJLmldRs5xp8sbt6vlVubZLRHz98Rv2ovFE3hW90z4c6TNaTXcE0U+sT26wR28c3yl4LcMJpphHwqPFDErsZZTMcoOnD5Vha2IpRx1WPsoyT9jB2dTXVSktFDvZtvb3VqerVxFChRm8JSdauk\/Z1q0XGnTdtJKD1qSTbcVLlimlrKOh+Lmv\/BnXfGev6pqupyzpeXNxPci8mdnuLm8mkLzTuSMuzTsWZyW3ncOScH91y3iChltDDUqEU1GMKapQiuWMdFGFveW1kkntaKaskfhudcLSzjF4mtiJzU25TVRNc8qjk5OV31ve1t9tmc\/8Xf2XfiN8NoG8RahEZZ9CstM1lNV0k2s9216Iba7b7Zp13Np81mljdOkUl9YvqMTGB55Le0OY4\/vaWNw+LpqLi6ftE1OE1eLUk7xUleOz2la22p4ed+GOfZXg\/7Q9nDFQw+Fp4uWIwc6dXERlHlbhiMNUlTnS9jLljKtSlXXLBzlThzWX9hX7BH7Tml+N\/hL4J8RGYBtU8M6e955jFhZapFbx2+o6ertk77DUYL2xlOY8TWjKBhlJ\/nTG1q3Ded43BVLqnGrUjTbV1Kk5KVGpG6SXNTaenS62uz9ueTYfiLhLLM1o8ntq+GjOtCnJc0K8eeGIpVVvzUq0XCzSd9dkz0D4oeN\/ijf+Jlm8BeJ9OXwhewXEWoJaSXlrc6Tq0MsjTXMsxvxavLPFcIVPlW+3y42cSlGZubG1auLlKpRxrjQq8rXspezUJK6mp3laTk2mpK2j5UtLvzcpeFy7DwwdXKZ1cfTnNfvOWssRTk70+SnGnzxilHllGTlzNXTSlyrjfh\/8Q\/hD4C0LxHrXxN+NGp+INUtbG60y7sNS1XxJ42i0b7X\/p0hv9eZdVsLC4v\/ALPFNFZyXwuY7eOO1jjhhjjt69DK6GAoxxNeoquKx2ITw0KVHD1ayqRfLyt1IUvYqVSUYykqbcrp+0d00ZcRYfP8VLA0q+GwmW4OnbF0vrGJweBqR+Km5U8HUrQxDp0ueVONSVNU1f3OrPD\/AIc\/FLw58b77XdT8C6pf6p4TtbySHS9eaK7stL1Dy5Giezs5L6O2lu\/sxUxm6tVks3CzQicTQsh+XzTLKuErz9vRng5zTqfVqs4OUYP4W1CcuVyWvLK0l1R7WW5q6NGnho1IV5Rgv3kITTbVuaa54pSje3LJKUWrOLcWj2NvFFp8NPDPiHxDrupC00bw9pV\/quqXmXeK103T7KW8uN3K72VImCrlyThUUblFedgHVniqNDD3nVq1YUqcIa805yUIrzvJrX5+Zec1KOIoynUskqcp1JTasox96crbpKKcm2lbY\/i78I+JLDX\/AI3+NPHPiR1gtNa1nxZ4z16G4dDBvvtRvdQhtwW3oxj8+5t\/MRRKyXnlwuouN6\/1xRg8BluEw0PfdHD4fDQtf3+SEIcy02fLd6abn8oxjHH55mOKlL2camIxOKquT0SlOc4qT1sle3Nqm2l1P6H\/AAB8SNC1bRPHmlS6nYXniYTDxlafYNf+G6a7a2tst9p+qapD4gu\/BfhObwwmmWd0LTVfG2q+Eda8UQWUg0jwlHBqeqW8F9\/orOEKlWDVehOrCElP2eJw\/NCEXFe1k44fDyjSi5RT5oucU170nq\/8+3GcKVo0K1Ol7RcrlhsTCEpVeZ+xg3jMRCVSXsuZQpzjGpKyneELnwPofxsv\/CH7SXgVfCsd1aWF7rF\/CNT03SNZ0vwlrolimOqINa8VNd+MfiJc6zFZ+TP421SW0t7qPT9PWysbK3so7Ufyt9JrAYPMeEXKrgsVVr4DFRq0MwVN4fCUPa2oVYQqYpyxeY1ZqNLnxHMqTVGKpfyn9R\/RtxeJwfElXCrFYeGHzDBSp4jBOdOtiZTo\/wC0YeTo4SFPB5dTpOVWUcK1KtzVZSnOUmmf0B6ldWltb2WoXVuJba5tobgq6CRFDxq5ikHzY8sHnnO4LtLcGv8AMfG06uHrNpuSvdLW1m7W9H1t+h\/eWEcMRC3uqWsW9FJa6S7vVW13Pm\/4g6lpGqpeSW8VmY8EBAjHkgttMS7VJwMHKgjgliHrjbnJ81mvevfbfzb\/AFPcwVH2TSk5JWeraSsuuvr95+Hf7bnxTXTLeb4b+Giiax4jjePUTbBY20\/R2LJMozKmJrpUkhjDSKXZn2ZWNhX754QcD4vPswp5pWoTnhcLUTp3tyTqr3teblTt010tdtH5p4tccYfIsmq5RhsRFY3MabhVcW3KjhXeNSXuptOdnGKs93bVXPj34JfFfXfgLPcap4d1HU9I128urGytpdP1HVtGv7aKC4tdRupQdN1CO7ARbO0UmKHULO9S73XmnXEunWz2\/wDYmDhSyqc6FRc8q18POjVi1zRkoOpB0uabcUlFqUY1oTU\/epSjFJfyFjorMsJB3go86rQlpNXhGcYzd1G1+d2SlTmmlaabuf0i\/sNf8FM\/h+PFXhm0+Ofw+0TUDquqaT\/aXjjTbLxPF4uv7bT4JWtrDxBPrPw\/0\/QNe0qUKyX93ZavY609lDdtC1\/c+WG83M\/CzIM8xmHzDA05ZbiqlVTrUKcK\/wBTxVnzShGnXwOHpU3V5ZO1Gtyv7NJtxZ5OXZrTy+vDD5x+9y6nOHtcVhaNCeLw9J1LOt7JZhN1nThJ2jWjBO0XKslCz\/fzSv8AgpF4q8VfH74cfC68TQNP8I+NNV0CLRbvwrqNzaix0PU7sW+jXT2Yvbi3XR59Ls9OfT2MKSJqHjHQZImEHgq6uJMcx4eo5bRr0vZSpywtGTlzRjyx5YyfuyioqMeWMGmpTvKcFdJSP7Lw\/gnw5xBwSuOOA+KcxzHD4bCTxs\/rdGhXw2JpYalOtjsPy0KVKrgMXhoNQqUcTCd5KMGk8QvZ\/TeqeKdL\/wCFy+G7vVfMmn8UaR8W7211WJYHtNE1zTdO8FWWmwSXenQ2lnqkk\/hvxF4hl0y7mRp5bSzuVt1gaO9iP4LnlWNPGYWVblUK7x8VUjH4KscPT9lzciSm\/Y1K\/JO2qj7iSUjHFUq8eH5YTDpxhhamVc1Gbd69CVXFSnaNRynRX1mjh3Vhe0akkpt2puP4N\/HT9lhNK+IvjDxPptyviHRri8vtRF5qdulvme4dpJBDbyM7+WJG2Rl8M6qpVAK\/njN8DPB1a\/sqkquHhOXLVcXCpUTd78t27p6Rvq0rvc\/Qcqzd4jDYajWgqVVwgpUqb51BrS3MlZ2Vm7aK7V3a58Ba\/wCAJtPS5jOkH5jIBFFEpVFd3CtEvyYLHkDGThcDkVw4KpVq1o25nK6Ubp8zatZK123bTTpr3Z9HXqU\/Z3claybs9u\/N2sn10Vjo\/hR+x94n8Ra3beJ9e0qfRPD9jcQXlhZXEXly3EyBbiC7u9yqsEMbFJ4bd5IZpZBkywLa3GP2vh3JcRGFLFY+L9pdOnRtrHS6dRbppW9zpa7205MLhqLxEMTWcWovnoUW17846qdVpSlGClbljZpte9yuUYz9L8Ra5+zhY6hP4c8WeNvC94NMvDY3FlOmta+0V1bymO5nv7DTYL2xjmguYJBBDM8XmQ6XqkUjtPJDAn7jw1wdVx1FY\/GyqYeEr+ypxiozcNUqt5K1pOMvZx1cuW7fvQ5tOLco8X82Ucq4D4OxuLpywrxeNzjF4rDYDBuEr8uDwrxWIw8q0pQg\/bqmqijKSpxjeNTl19B8L\/DHw3ayXn7NfiLRdTt31iE6v4H0a81K1uL\/AFSXRYNU1RNF0vUpUWzudM0e2g1LUzFbw6b58142o3FtOWkj8nj3wpoZ1hJVsHUlTzLD02qUqihar7OF\/ZVZRWkVL3ISa5lJNNO6t+Z5RxP4h+F+MlgvEfg\/H4HKMXNKvjqdH22HwdSpVlQhWWIoSrUFOtO1R0p1Kcq1J06tNOFpTj+MXww1D9pX4fanovwt+LXijwXdXMUE2uaPo179jnm1SyYmfS9QgESalau2I2litpIGvWjVJorqCVYZf5xy\/BYvh\/NJYXNcsc6uHSUcPjYuVO8X7tSjd+yqxe8Je\/F6ONmrn6L\/AGnldeVLFxx9b+ycwUoSzPJ6v1bH0KU9pRrOLq0HTf8AEptRko3hL3XJS8v8HfswfFPXbbw94d+MnxQvvEvg3ShZWt74U0+zh0u31iHS7O4sNNtryGxiiuLtYoJnSdLuaOK4ZilxFLCkCx+xPPr1ZfUMsdGXM5Rle\/sndczp3lZO9lH3bpK19bno4ijwBk1GpXwtbGZ3mnLKdDFZhyypqdVxm5VYckYyaklPecZTcpOKTsv0i07wN4Y8EeC9P0rT9KsfDunabHusrKBY4EsrKCN2HmSMUwyRDzZ5HOXeR5WLF6+XzjmrxdTEXniJ1LvrrLSMd7q0Wo2Ss+m+vwdHG1sRmNXGRcn7VSUpuyc3pzSSUUrOVuVJe6rLdH5IftxftA2HiX4c+KPC3hvU1sPh9ZQXMniHWVlaGTxRe2ZUw6FpJbLNpa3EcU15d7QNQnjgW2Z9PjuDe+9wfw9PDZhhsXiKfNipSSw9Czf1eLtetV6Rqcvuxjq4J3a53Hlxz3M1LBYiE5pQhSlKvV6zSTapxfZu12t3pqua\/wDMxo+tW0GrTXN\/ZXF\/pd1Lsu7a2uGsJ5oop45HFtcmJ\/KYqRscxNGWHlvja9f0TVw9V0qc7OCa\/dznB8smo20V9bbaO1+up\/OMMVH2tdte0U9JxhJRlL3ueylaVmm4tJq2+jsfsjq3xIm8O6dY65aappeuXWm3CXFnZXnxb8e+MbaeBoUd5L3w\/rng65uL0Ryr9ss7W8vo1gngtZ3EU488\/wCgOIx6w9qlPFYOoqdTnjTqZ3j8ZFxSk4uVF5dOpU5IvmjCbWqUpS5tT+G6OAVeTp1aGJpTnGVGdWOSZdgqkU7KSjWp5jTpQvJazjzNwk42cFyi6ne\/Dn4hT6V47t9auZNf0m+sJLXxFeBtY+I3izxNLKHj0HwNpepeVYeE9BF29xHcXJ0m2LRPcLe2iwC91tPKz3h7hzjTLMThcxowxWGzGnPCVa9WhTq5viHVpuMqeXUsYqkcugp25KkKP7txlPlpqDrnpZDn3EXBWaYfE5fVlhsTl9VYujh6dSpTynDwpTipVswr4S08xlyObnTnX\/ewcaalOco4c\/Rvwl+3H4Ks\/D0nhn4xQx6PL4fto7DxB4u0OZtU8MaVf3d0ttp+m319LDY3MmptaPFd3aaTaajb2ozvmWG406a9\/gnxH+iXn+WwzbMuD83wGa4DB+1qrLcdWlRx9ClyRnSwccwdGlgsdjZNuKjGnhIRTp89ROpHm\/tLgL6SmRZnVy3B8SZVjcqx+O9lCOOwtKNXA1qvPNVcX9SjXrYrBYCMVGalVq4ies0o2pTa9I+NPir4Y\/Cf4E6t8So9YtNffUreOLw6ltdpeRatqWpOq6dDA1obnzrYlvtN7cR+Y0OnW11OodogjfzpwH4ZZ\/xjxfhuEZ4TEZdiaFeUs6eLwtenPKcJhZL6zPE0nD2tObvCnRjKEVOtWpRbjGTkv3\/jTxCyrhfhutxL9Yw+Ow06MFlf1WvSnHM8VXTWHhh6ntFRqQspVasozk1Sp1ZayjY\/mX8ca3d65qmr+MvElzDeanrFxNe3l5byW2o6QpuCxW0MLxpeWFvAga3gtkUwW9vGBvIjLt\/pDguG8l4MyKll+XUaNHDYKjGlCpTnSxUKjjFc8sTzU4VfaTa56k7e9dytBqy\/hLF8QZvxdnVXHZhVq1MRi6kpzjUVbDSgk\/cjhuWVSi6UElGmuZ8umrvc8Lt4p9V1OW+Ux\/ZbbKQRrPBJFGnmPJOIgdWspZIWnmf7PvBkFs0SYGxUHyeDw08bjZ42c4xpxk\/ZxVSk1q5OfKpY2i+Tml7icXJQstbcp9Hiq0cPRjh4QnKXLFOShVutt3To1Lys3fW99T0K11O90iawksFa3v0u1igutNg0NrhYmTzrp4by1F5dx3cEKs0Mr35SMtNE0Yjzj6CXtKMqUaChCrKVoujSwV3Sa56k06XPPnhCN4uVd2e9os82EaVSM51earCLTkq08Tyc9+VJe1ag1JtpxjRSa1vJybf79\/8ABKn9pyTxh43+G\/gzxnrv9o+O\/h9reta58Jtf8T3eoXFqbm4SSfUtB1vUZppZbmDVfsh1XRy0bQ2utrJsihh1ImHzc\/xkamRzr1W51aUZxq1P3k6kqFWVSgqs5STdTlc6c5Xt7jnKKUYo\/ovwI4vxXDtfiPhKq8RV4d4rwNejPBUZ04QwmZ08LOCxOGoyvRpqrhva0sVGChUq8mGvUcqdp\/1G6p8S\/DUeRr11fanBpd6nibRtW03zbG\/t7+6gbTheva6wvmm0nt9WvrbWtP1QSXNnFOW1K71O+u7Hxhqn80ZrgaOL56NdTlGFSOJoVabUalKsueKqRunHkcak6daMtJRk+Zt2qn62srrY+hTeHcMNWaeErU6n7ynOnBp+zl7L4pfuaUsPOEoxbjaCpxpvD0\/mvxP4j8HfERbqVb3xa0CyTO9pbaFYWj3Zjg1OYRQzNrd\/9mE\/9k3kaytY3JtwbeVreRGIX84xHBUcyrP2+OrRpOT5oUqEYylG7+GUqtWMU1f3nCW60dj6DCZBjsshHnr4CLcItz561Rxi\/ZNvllTop6VaaSU7SbnG+lzD0L4VeEtAnk1aPw9Hp7G5uI4LzUpZdZ8QTwxXF9bR3Ubyxl7a4ZrS3jEGkWNqstvNLILWRMk\/WZNwrlOTKMsPhIe3tZV6v77EO+0oua9xtpx\/dxjFpt8qV79kqbrzjCFSdbkipSqTShSjLkjLlSi\/ZxUoTlLnm+ZKMYzqXtf5v\/aG8X\/GnxpG3w1+APw68UQ293LptvqvxAtk0r7B\/ZGqWt3ebNASe9t767tLmxFzcy67EqwWUWmapZ2M0t1s1Cz\/AE3Icry+Uo4vM8ThqNOnFzoYOUpSqTqQlaP1hJXjBW5vZc3NNKMZqMZNS\/UeFcp4ZytTzXiLO8uVWNKq6GVVPbTqxxixFKhRhjI0aMqdKUKjU\/ZuXNUThN8tKTk\/hBv2J\/i94G0a91S78AX9zeCOGSa9uYoNQ\/s68a7lO3WLpJ7lpLn7fp5gvNbmt7exT+w9ZFv9qTUpPtf6TQzjK3y0YYvDwipKNONuVLaEPcaatTUb3jaXJSi7R9+\/7ZgPEDg6qoYbD51hoU1Kaw+H9hVgqs60KVPDTjGVKUXyyrUU4rmnyyo1K0YP6y38maw2qaHr8V\/oS6rotxaNdS3moxXFza67FojapdG\/lgvoo7K7j1Dx3ren6q4nurK63Rf2fPHDHeWi2Oq6e0517j5o25v3cYTdei581OnLlU7+3jJ1NZQnWS54tVeWkbZxleX59llbLMf9QxuDxUKjnB5dhcTzYGVeVaviajrUq9CNSvSkqOFo0oUsTiJ4aeY+9OFTBx\/QX4cadqXxx8FpqXgfU7Twj8ftB0W3TXbrSdOv7fRPAHh5JLQ6deaRny9I157i3iiu7m0aTWNLu7mVmSS20dtEvLv8\/wCP8iyzE4P21alTqV4yjNaxlN2u3h6Tg+dcidva3to5680UfxBj\/Czibw\/45q4GEJU\/D\/O\/bVsrrzxeBq1cKqybeFxkYVJyo16FeLo0vaYSnCtGCUHL2eIZyXj3\/gpF8P8A4UXzeDf2gNF13wP4v0hZ7CXx1oHhm68Q+EtbvbSWS1e5s49Ki1G\/0u9vHtzLLpl5ayLAs0Lx3U8ciO\/4JHhjPcfGcsnpUcSlOUGvaQpYmEr\/AGoVnCEl\/eg3d7wg7p55\/wD2BwljqMM4rYmngcRCGIwtaph69fCzg+aMqDrYRVqkalOatyuEE00uZp6fnb+1Z\/wVRv8A4m6FJ4C+BL6lZ2GpbYvEPjvVbOyt5brTD80+laLpN7ILuOO9+SK91DVYLaT7IstjDp22b7Yv7R4b\/R0xubYynmvGOIjKmlGWDy7L8Rh5+zqP3lUxuInVglOCvyU6UJxU+VyqJw5H+U8X+K2XYWl9T4Uou1\/3mPxdFwSpK96eFw0lzXnb3p1VF78tNuXPH8r\/ABf4p8XeO4seL\/F93e26Kwjt5bhZ1VGUgi20jTVh0y0YEndLP9r8wsG2K3zV\/W2RfR94UwVKVVUKNJuDSk6tTMMdLmtFOFNOOCoSi\/eU6ssXBr7MH7y\/C838Q88x83SxGJn7NWajJRo0Umr2VOlec1ZLW0Ldt0eUaL4N8U61qsOneEtC1LXb+0EmoD7DZSXc8Wn2SmWe81HyxJHaafZwK0lxd3MsdlZKvmPNCqZr8p404YxWQ0ZYPGUKcaGFrTWGxUlFVqlDaEaq55O0Y8toQc4w1tY9LKMRHMasXgnUq1aii5U433V+aSv7sYrVuU3FKy76fpt4p8c6atrJBc61ci0ddQNmvij4++OpNSuI42lZY20DwxYtFbNDeNGZbb7WiyzW8Z+1Nc+YsP8AS+Y4mFB1YzxsPZTlOUY4niHHU51JKVm1h8JRdT3KnNBr2slZRV22nH+Rsvw0qsKclgp+2ioRnLDcO5fNUlNKSviMVUhBqdJp39kpc0mrKKcT5SuIdU07V11jwxdXMDxQTw2UsXh\/xBKtu95EI7qS11LxRqGHkljgMME7Q+UMg7QrmM\/ISpYxVp4vA1atOcYSVOpDBZhV9nKetSVHFZriVFucYKKlycidnZ3lf6uGIwqpfVcbSoV71Y+2jPGYKPPCD5acK+GyzDOSjTc7umqnO78t09se6+JTXdm9je7Y4tK82fRdN+0qNPstTeSJ59e8WXhQR6jqxQGREiYypdmCfzGeCOC28ipxNOpF0cV7ODwzfsKNSopYXDzSk3iswxCfJVxMZt1adKEpyVW8r83w+1SyGmpQr0PaNYhL29SNNrE1qWlsJgqL96jhnFezlUnGEXTvBKCbdT0TR\/iD4suvhbovhfWtY1TWdHttT1XxFo9rb6\/cW+saE2tzB5kexupore6g1EpLrVvaXd5KtvHqRnit5J5LlpMMgy7KMveZ8RUsDRlnec06X13HUcTUwmc18NQ51hp1VKKozdT2tSsqTneWG9hGfPKjBR6c7zDNcyWW5DXxVZZNlPtVg8DXw9LFZTTr13CWJjFrmqxdL2cKXOqfLCs60oRgqsnL5k1\/UJ9evjtkZohGiyPJa3eh387IP3ttcLBBPa3jFco05jiQzZdYUK4r5TM61fOcVy3rSoU1rUr0MRg8XVs2nTq1MPSqU68feaU5Rim03yaXf0mX0qOVYZ\/wY1pXdqdejiaNL3dJU6dapGVPyoqUkklaTk2l0mj6ZDDGkaX1sFjtVYhdYtg6SIrNIqwT6ClxI2AseIfPKx+bhisi19FgcDTo0Yx9tThGFOG2LanHkTbahPL41W3ZK0XKSV1dnj4nG1qtW6jKUpzlo8KnFqbUbSqQxkqaSve8lBN8q06M3x3+r6pqEUiiz0qzmhsvMjkmmnuJ5QIopfJWMzgrJLHvlS1t1iV1m+Qukvm0YRxuKzHGRkuShTeGwy5PaTnVqySsk7Oak3JJzjTpPlk5KS0n6VepLB0MBhdOec41q8uZQhGEIqzm\/JuN4RlUqXlFRalrHrfhb8VPE3wg+I\/hnxJ4NultvEPhO+0y6spopBMi32n3dtdO8hKx\/wDH5cW9vbFo7iCdYY5kkcxM6yfKY6cPrWIwKSqU6WHeGrcrvFqEeWpKScVGUpVOXazSp3d0j73IK7pLBVXVq0pYivTlzU37OvThVqxuqUrScZ8j\/du0vefvK17\/ANSTft02umTaFafGTwb408H3M9levdzSaM\/ifQGs7uPXZdQlg1PTftEl5aSPqOmab+4tbqxlVYWge2e3Ln86xvDWW5lVdTL8ZCm4ylFqElODT5nL3JWcVFcz0korm6pXP7pwHBHG2W05w4fzDJeM8DKVP6u62JeRZzKVKnCtH2qqwnQVWnSpSnOpJ0rNRpp88m37T4Y\/bX\/Z+\/suXWF8bx+dDLG2o29roeprcR3N1a6ncalak\/ZFU3UTanfWyR2gnm84GMKUSJV4qPAtWNSKeOjySm05RoxT92ClJK1R2Vn5LW3XTSeU+J2Kq08FS8PJrFVXUo4aric\/y2eCdTDxoShz1KdROMJ0oU50+fSKlJTjCdlPV0\/9uv4VXMFhqd5o3xRvLqeyui15b+GXsbaSGVluNenszJqstrfSaJpcDHTZR51tBdXFtDcTW7TWmfeocEZVBuVXFTqyXK3zVtXeHMrKMFL3kkopJSs7N63NJeHnjTiqVSlg6nAmXUKf1N2jjsXWlBYmlWq4Wm6csJ7SNWTjaopturSi6kKVdL2b9+8HftvfB4tdvd6J400mG2lWO+uNa8OaXbqLxIbu5g0wCXVIpJZ5tN0nQrCGHT4lSV7q9juZIvLaef0f9UssUUoxg3JXvGtOUmnyvm1TS5XKDauoqMVpbm5\/n8b4T+PlGnRr0c24PzP28I18PQwtbERTo3wynPm+peyVKEcXiKkr1HUdNRVNSqVqMIdz47\/a7+E+t+H7uTwp42tI7mLTPGf2czmTTHjutJubHwbBFbSTW1rY3EOrJqN5r8FiJLnUJ9kb2dnI1rnR\/EzXhWEKM3hKs4VXTSjG8LL2kuVNJXfL7NSje6u0ua7PnqFPxQ4QxlP\/AFz4NdbAwq0pV8bllenjYVKUY\/WK1WUaFWVR0sNXpKhisTKgsLQqJ0ZzUpL2vy98Rf2FYfiJrHgXxdpWpw+El8aeHLafx3e6k1vd2GhWsH2JfCk9j4c+16VDNr+ye+tI4Vu7NreO01XUb8q8N9bXnLlmeTyXA4jCYtuWLpNQpc17wlJNNXv7OXsVCKopq1P3pNcl4z\/pHgvxVjluS46thsNLHV5VaKySNqkZSw06ftKlapXnCulDAuFCphFKhN+2xFOFJShrS+kvBmg\/Djwbo2p\/CX4TeH7PQtGt5Li3vtV07SrTUb7XdVgSYXOpa48cM+sa1qJtC97f61Pdz6tqBja20xHs7NbC5+JxOYVs1qV51JyqRvNa01NNNy0hGWtuV8znrObjKd9ZI+LzLE5rj8TTzbOcXVxOKrXqRdXEzj7By5aiinzQoUIyqRdJYeMadCDmnP8AeSVQ\/Bb\/AIKIfBrQtS1K\/wBbv9MgkvPCeveG9avGu7Mv5mgeMY00PWLDUo5YIbKeCbVLNLmSOOMiNrW5giS3EN8ixwnKWGzqWF2p4lTUU20o1YtVYb6O8ZNO2jvrzNa\/OceZdhM1yDD4yvSp1KmWY5Qm3GM4zwmJtSnGy5moO9Kcue1uRP3Odc3zP4f\/AOCbfwh+I1va6xoviPxN4He9hhm+yaTLba5og8wI3mQWurxm9jV5GZlVNSS2AO2GNI0Va\/fsq4szXI2oxhTxFOmlaNVzpzVle0WnOFleytBerP5ez3gjJ8XOcsNVrYZNu8ISVWmr2vyqbU49PttXdlZaH054A\/4JCfBKyeLUPGHxE+Ini22hZJDpenf2P4etrhcIViuJLSy1O+WFwpV\/s91ay4OY5Ebmvtv+Iz8RUsO6dCjhMK7WVWTrVpx84JToU76K3PTmrnx8fDjLHUTr4jEVYqV+RKnSi1tq5KpLvZJp2ejT1Pafjn+w34b\/AOFMDwL+zxo+i\/Dkx67p+pa5ZxwXtxJ8QdGsYLy1udB8Z6vHqEOv69YmS6GoxpqGtPD9otUtp7drRyi\/l\/E+Z5xxMpYrGYjE4vEXcuapaEYx192FOKjCML62hCN9Lu6PuMty7LMpo\/VcIqGDpycOeylUlWSb5oVpqSqTjOO\/vpXUVpFyv+GGmajfx+HtSum1LVrWzt9EutYu7HR9QbT31G7e3W8g+0Xt1FqkxWLz7pXaRZp3acGGa1gjFs39QQrVaOErP22IhCEJVJxw1Z4edSUqbra1ZRrStzRnz35pSc48soRgoS\/hSrh6M8XRh7HD1HVmqVN4qjHEQpQhXeFbVKLoxlNw9k01yRTptyhOpN1I+bxJH4u0c65Ha2lja3UV6xtNRF94m1BZ9OWdpZ\/7V1rUJod1y1q4VY9LhW3jlVP3xi3yeRSpxzbBvMFSw9GEoVV7PEwq5piFKinOco4rHYipTj7TkatHCRjDm2nZI9irKWU45YB1a9aqp0F7WhKlluHca0oRipYTA0aU5OHtOZylim5uLbtzyv5d4H0u2+IXje00i4jjtYI49Vu5vtMSXkMyaNptzqUdnHZWP9i2VpbXD2iwzG3gW6WKSTyrlH2MnxOW0KefZu6TjGlCg67ca8Y4mDeGpVq3LSoUlgsNQhUdJQnyUXUjCX7urCSUj67Ma1TI8odeMpVpT9gl7OUqMorEV6VBynWqvF161SmqznF1KjpuUVz0pRck+skttR8VT3l1q02hmSC5ulDWXh5dNcRy70aCN9P1K28q3WIGGOFVKRwtsXAANe5HLcVm8p1MbiMBUdHmiuXKo0W4qXIoqdDF0pwilLSEXyqMVHl6nlzzHDZRTjHBYbF0+aMZO+ZSqptJTcmq2GqqU21dzleTbcm2wm0RNNtFlEpdJIxN5Md1rsCoIyhEcOddlEQ3s7gqu0M33DhcOWWwwWHlWj7OS5nPkhPMqPKo8klGElmclFLnf2Hu+6SiWaTxWJVOUZpq8XKSwNVNrnvJxll2snt8VktEt28vUdflXQo5NObULTzZJbNhdak2plY7gi2dojc26pG5UyHIjPDkLtYFzxZtmNaGVReGnXoxrTjTlGeKrYm3tKqpuUXXclG127KPZXVtezKcDTeZ1XiI0a06FJ14ShhqWG95QU7S9ilKS2XvSd7Xavtynh+98iwtt6SSjULu8jKCVY44k0K3aeDcohYztLdQm4cSN5SNLN5cSuwkXwcrxKpZfTXs2\/aVMQkvaNRjHLaU6lJNKPvynWpe1m5tx5pScYRbUl72OoutjZ++o+zVC75FKU3jasYVdW0oxjSfs4KKU+WMeacleMn\/AAntE8TeJdFvNSYyNrfizT0uFI3bY73VrSKRFcFW2pDePGmzy\/4y+4OFT4SrVqw4ex2a87liMXUrczd3yutKKm4yvf4aritra3vzWX6dwvhqWO4yyPKasbYeOJwnw21UKjaTja29JX6avQ\/tC0fSbaHQLRZI7e5Sw0lr2BJrZZEMUWkpP9ldJnmQgrLJEJlVZEBRkwUAr8SqSnTqVJRnJNSlD3W49Wru3+FO17H9\/Up2dJQ5oLe8Z+85Rr8vM5JJtvS9rNq8W2mz3HQPAPgqG61lLfwp4binmsPEV3b3I0SwDW0ltc6Rpka\/u4YpJYczG5MQmiUsZVOZJ5Z27o4rFu8Hi6\/LCN0vaT2daMGr819U1dtvRcu23n1cyxrpYd\/WsTy1KmFhOm8RVcf3lGdWUknJpSai4NqN3FpbQil7nZaD4fW\/kR9E07dc3Xii5tPs9nY2kOn3dr\/Zun+fFFBaBm+0w3jreKksP2uKOOGdpEMnmWsRXdRc1arJzk7tzlZP2kY6RvazjeLWzTPPeIrVaP8AEmlQjhYPmlKpKoqtKtN3nJ3XJOmnTupODbs9I29C0rwZ4K8QWeoyeIPCOg6yNMs7PVtt9ZLL5ss8\/ivU7fygzGK1udPk8NmGzvo4mufJ1O\/+0NPLe6pJqfdSxuKw8XOniK8XFRjdVZq6dJ1l1cbp04xu4tOMUmmlZ4yzLMsHXovB5hjMJ7V1aVqFepTioRr4LDOMlCUXOnONSM5U3JQ56VNpWp0lT\/HD\/goX8JPhn4JsdM8SaZ4Qsra+\/tb4EapHb6TPc6Fpkg13x7qltrVlfWNhIFuLbULfRbWMi0fTnt\/Lh+ytDHG8U3q5TnWYVs0o0K9b2tOc4KSakm1h05xv7z5ubmafMmkrWV4pn6Tlmb5xneVY\/JcVmuOWHzaljcuxteFWH1t4eFOjWvTrSpuPtZRqTpTniKeJVRKlKrCpKhS5P1b+Mmr6z4Y+HiWw1Ka8kk0nV795lUWST3umxT2jSXlvCXS7hH20x6XBI2NLsbHSbRnvpNPW7k+R4kxc1iMTVglByxTUVFJWf7xuUmlebco8z+FN8ulo2f5\/wdluGwscNly9pWp4PDRoKriZqrWnSvh+WMZcsVTtFJNxT5pOpLRT5V4z+zpeLfeGtY1i4hBudQ8Q6IqIPKeOzTUdYs4b6GBrmC4n+zXWnStp1xCZsywvK7SeZJlccsw8I4enHrVlZu2icnaTSd9LSaSurLrdJnsZ5UlTxGIk5OSw2HrzauoKt7CnWqQc1BKCn7SlCbnyO0kuVRSR8Eftg+GtNvNX+LWl3yNcJffBfxLdXs2+Xz5rzQ7rVby1uRNcSXVw7rPqN0YzeT3skKeQqysYAzelw9h6Xtp13FOtDE0XCo170fae5JXd39m9731+Z+HeJPEmaUc8yzJ8LXqYbLcRTpyr4SnNqjUl7SSi3TSUYpU+SDjFRjLkTa5bQjwH7I0MV14c8KQSIDDrmhWV3PGeVgu0SFGntgf9WZkkPmqu1WkAlUK+c\/t1OnSqYWlz04ycoqLb7rTm2td6dPmfmuZ4qrGcpxk4uOmjaTjKPNZ97dH0sfolFAlnK9tGsbROyIMxKGX+EHcuM4PzdB6Vw0sPRkp3grJprRJ6yS3S89dLPsjxqmLrycb1J3a6ybW19nfv\/XSxqmixy2V7AtxJA08MlsJ4kiMsIu4nXfEJllQmIneglSRcjkV0+wpxpXSfve7o9l9zXysZwxNRyjJ2fK1Kzu03GSWuq0dveta9wP\/Z"
        }
    ]
}